(footprint "OSHW-Logo2_14.6x12mm_Copper" (version 20211014) (generator pcbnew)
  (layer "F.Cu")
  (tedit 0)
  (descr "Open Source Hardware Symbol")
  (tags "Logo Symbol OSHW")
  (attr exclude_from_pos_files exclude_from_bom)
  (fp_text reference "REF**" (at 0 0) (layer "F.SilkS") hide
    (effects (font (size 1 1) (thickness 0.15)))
    (tstamp 5aec1af5-2f36-4b64-81dd-d21c018f2fb0)
  )
  (fp_text value "OSHW-Logo2_14.6x12mm_Copper" (at 0.75 0) (layer "F.Fab") hide
    (effects (font (size 1 1) (thickness 0.15)))
    (tstamp 8f27953e-264b-4c2c-a532-14d66266415f)
  )
  (fp_poly (pts
      (xy 5.33569 3.940018)
      (xy 5.370585 3.955269)
      (xy 5.453877 4.021235)
      (xy 5.525103 4.116618)
      (xy 5.569153 4.218406)
      (xy 5.576322 4.268587)
      (xy 5.552285 4.338647)
      (xy 5.499561 4.375717)
      (xy 5.443031 4.398164)
      (xy 5.417146 4.4023)
      (xy 5.404542 4.372283)
      (xy 5.379654 4.306961)
      (xy 5.368735 4.277445)
      (xy 5.307508 4.175348)
      (xy 5.218861 4.124423)
      (xy 5.105193 4.125989)
      (xy 5.096774 4.127994)
      (xy 5.036088 4.156767)
      (xy 4.991474 4.212859)
      (xy 4.961002 4.303163)
      (xy 4.942744 4.434571)
      (xy 4.934771 4.613974)
      (xy 4.934023 4.709433)
      (xy 4.933652 4.859913)
      (xy 4.931223 4.962495)
      (xy 4.92476 5.027672)
      (xy 4.912288 5.065938)
      (xy 4.891833 5.087785)
      (xy 4.861419 5.103707)
      (xy 4.859661 5.104509)
      (xy 4.801091 5.129272)
      (xy 4.772075 5.138391)
      (xy 4.767616 5.110822)
      (xy 4.763799 5.03462)
      (xy 4.760899 4.919541)
      (xy 4.759191 4.775341)
      (xy 4.758851 4.669814)
      (xy 4.760588 4.465613)
      (xy 4.767382 4.310697)
      (xy 4.781607 4.196024)
      (xy 4.805638 4.112551)
      (xy 4.841848 4.051236)
      (xy 4.892612 4.003034)
      (xy 4.942739 3.969393)
      (xy 5.063275 3.924619)
      (xy 5.203557 3.914521)
      (xy 5.33569 3.940018)
    ) (layer "F.Cu") (width 0.01) (fill solid) (tstamp 0fef3d74-b0f3-44e7-805b-708c20414976))
  (fp_poly (pts
      (xy 3.580124 3.93984)
      (xy 3.584579 4.016653)
      (xy 3.588071 4.133391)
      (xy 3.590315 4.280821)
      (xy 3.591035 4.435455)
      (xy 3.591035 4.958727)
      (xy 3.498645 5.051117)
      (xy 3.434978 5.108047)
      (xy 3.379089 5.131107)
      (xy 3.302702 5.129647)
      (xy 3.27238 5.125934)
      (xy 3.17761 5.115126)
      (xy 3.099222 5.108933)
      (xy 3.080115 5.108361)
      (xy 3.015699 5.112102)
      (xy 2.923571 5.121494)
      (xy 2.88785 5.125934)
      (xy 2.800114 5.132801)
      (xy 2.741153 5.117885)
      (xy 2.68269 5.071835)
      (xy 2.661585 5.051117)
      (xy 2.569195 4.958727)
      (xy 2.569195 3.979947)
      (xy 2.643558 3.946066)
      (xy 2.70759 3.92097)
      (xy 2.745052 3.912184)
      (xy 2.754657 3.93995)
      (xy 2.763635 4.01753)
      (xy 2.771386 4.136348)
      (xy 2.777314 4.287828)
      (xy 2.780173 4.415805)
      (xy 2.788161 4.919425)
      (xy 2.857848 4.929278)
      (xy 2.921229 4.922389)
      (xy 2.952286 4.900083)
      (xy 2.960967 4.858379)
      (xy 2.968378 4.769544)
      (xy 2.973931 4.644834)
      (xy 2.977036 4.495507)
      (xy 2.977484 4.418661)
      (xy 2.977931 3.976287)
      (xy 3.069874 3.944235)
      (xy 3.134949 3.922443)
      (xy 3.170347 3.912281)
      (xy 3.171368 3.912184)
      (xy 3.17492 3.939809)
      (xy 3.178823 4.016411)
      (xy 3.182751 4.132579)
      (xy 3.186376 4.278904)
      (xy 3.188908 4.415805)
      (xy 3.196897 4.919425)
      (xy 3.372069 4.919425)
      (xy 3.380107 4.459965)
      (xy 3.388146 4.000505)
      (xy 3.473543 3.956344)
      (xy 3.536593 3.926019)
      (xy 3.57391 3.912258)
      (xy 3.574987 3.912184)
      (xy 3.580124 3.93984)
    ) (layer "F.Cu") (width 0.01) (fill solid) (tstamp 3bc1bb18-1d0e-41f6-95cf-932d186824ed))
  (fp_poly (pts
      (xy 6.343439 3.95654)
      (xy 6.45895 4.032034)
      (xy 6.514664 4.099617)
      (xy 6.558804 4.222255)
      (xy 6.562309 4.319298)
      (xy 6.554368 4.449056)
      (xy 6.255115 4.580039)
      (xy 6.109611 4.646958)
      (xy 6.014537 4.70079)
      (xy 5.965101 4.747416)
      (xy 5.956511 4.79272)
      (xy 5.983972 4.842582)
      (xy 6.014253 4.875632)
      (xy 6.102363 4.928633)
      (xy 6.198196 4.932347)
      (xy 6.286212 4.891041)
      (xy 6.350869 4.808983)
      (xy 6.362433 4.780008)
      (xy 6.417825 4.689509)
      (xy 6.481553 4.65094)
      (xy 6.568966 4.617946)
      (xy 6.568966 4.743034)
      (xy 6.561238 4.828156)
      (xy 6.530966 4.899938)
      (xy 6.467518 4.982356)
      (xy 6.458088 4.993066)
      (xy 6.387513 5.066391)
      (xy 6.326847 5.105742)
      (xy 6.25095 5.123845)
      (xy 6.18803 5.129774)
      (xy 6.075487 5.131251)
      (xy 5.99537 5.112535)
      (xy 5.94539 5.084747)
      (xy 5.866838 5.023641)
      (xy 5.812463 4.957554)
      (xy 5.778052 4.874441)
      (xy 5.759388 4.762254)
      (xy 5.752256 4.608946)
      (xy 5.751687 4.531136)
      (xy 5.753622 4.437853)
      (xy 5.929899 4.437853)
      (xy 5.931944 4.487896)
      (xy 5.937039 4.496092)
      (xy 5.970666 4.484958)
      (xy 6.04303 4.455493)
      (xy 6.139747 4.413601)
      (xy 6.159973 4.404597)
      (xy 6.282203 4.342442)
      (xy 6.349547 4.287815)
      (xy 6.364348 4.236649)
      (xy 6.328947 4.184876)
      (xy 6.299711 4.162)
      (xy 6.194216 4.11625)
      (xy 6.095476 4.123808)
      (xy 6.012812 4.179651)
      (xy 5.955548 4.278753)
      (xy 5.937188 4.357414)
      (xy 5.929899 4.437853)
      (xy 5.753622 4.437853)
      (xy 5.755459 4.349351)
      (xy 5.769359 4.214853)
      (xy 5.796894 4.116916)
      (xy 5.841572 4.044811)
      (xy 5.906901 3.987813)
      (xy 5.935383 3.969393)
      (xy 6.064763 3.921422)
      (xy 6.206412 3.918403)
      (xy 6.343439 3.95654)
    ) (layer "F.Cu") (width 0.01) (fill solid) (tstamp 474c5dd9-c990-46b6-b6ab-95f3db51c369))
  (fp_poly (pts
      (xy 4.314406 3.935156)
      (xy 4.398469 3.973393)
      (xy 4.46445 4.019726)
      (xy 4.512794 4.071532)
      (xy 4.546172 4.138363)
      (xy 4.567253 4.229769)
      (xy 4.578707 4.355301)
      (xy 4.583203 4.524508)
      (xy 4.583678 4.635933)
      (xy 4.583678 5.070627)
      (xy 4.509316 5.104509)
      (xy 4.450746 5.129272)
      (xy 4.42173 5.138391)
      (xy 4.416179 5.111257)
      (xy 4.411775 5.038094)
      (xy 4.409078 4.931263)
      (xy 4.408506 4.846437)
      (xy 4.406046 4.723887)
      (xy 4.399412 4.626668)
      (xy 4.389726 4.567134)
      (xy 4.382032 4.554483)
      (xy 4.330311 4.567402)
      (xy 4.249117 4.600539)
      (xy 4.155102 4.645461)
      (xy 4.064917 4.693735)
      (xy 3.995215 4.736928)
      (xy 3.962648 4.766608)
      (xy 3.962519 4.766929)
      (xy 3.96532 4.821857)
      (xy 3.990439 4.874292)
      (xy 4.034541 4.916881)
      (xy 4.098909 4.931126)
      (xy 4.153921 4.929466)
      (xy 4.231835 4.928245)
      (xy 4.272732 4.946498)
      (xy 4.297295 4.994726)
      (xy 4.300392 5.00382)
      (xy 4.31104 5.072598)
      (xy 4.282565 5.11436)
      (xy 4.208344 5.134263)
      (xy 4.128168 5.137944)
      (xy 3.98389 5.110658)
      (xy 3.909203 5.07169)
      (xy 3.816963 4.980148)
      (xy 3.768043 4.867782)
      (xy 3.763654 4.749051)
      (xy 3.805001 4.638411)
      (xy 3.867197 4.56908)
      (xy 3.929294 4.530265)
      (xy 4.026895 4.481125)
      (xy 4.140632 4.431292)
      (xy 4.15959 4.423677)
      (xy 4.284521 4.368545)
      (xy 4.356539 4.319954)
      (xy 4.3797 4.271647)
      (xy 4.358064 4.21737)
      (xy 4.32092 4.174943)
      (xy 4.233127 4.122702)
      (xy 4.13653 4.118784)
      (xy 4.047944 4.159041)
      (xy 3.984186 4.239326)
      (xy 3.975817 4.26004)
      (xy 3.927096 4.336225)
      (xy 3.855965 4.392785)
      (xy 3.766207 4.439201)
      (xy 3.766207 4.307584)
      (xy 3.77149 4.227168)
      (xy 3.794142 4.163786)
      (xy 3.844367 4.096163)
      (xy 3.892582 4.044076)
      (xy 3.967554 3.970322)
      (xy 4.025806 3.930702)
      (xy 4.088372 3.91481)
      (xy 4.159193 3.912184)
      (xy 4.314406 3.935156)
    ) (layer "F.Cu") (width 0.01) (fill solid) (tstamp 50a7aa28-ce68-42a8-97c7-8d210e695f68))
  (fp_poly (pts
      (xy 2.393914 4.154455)
      (xy 2.393543 4.372661)
      (xy 2.392108 4.540519)
      (xy 2.389002 4.66607)
      (xy 2.383622 4.757355)
      (xy 2.375362 4.822415)
      (xy 2.363616 4.869291)
      (xy 2.347781 4.906024)
      (xy 2.33579 4.926991)
      (xy 2.23649 5.040694)
      (xy 2.110588 5.111965)
      (xy 1.971291 5.137538)
      (xy 1.831805 5.11415)
      (xy 1.748743 5.072119)
      (xy 1.661545 4.999411)
      (xy 1.602117 4.910612)
      (xy 1.566261 4.79432)
      (xy 1.549781 4.639135)
      (xy 1.547447 4.525287)
      (xy 1.547761 4.517106)
      (xy 1.751724 4.517106)
      (xy 1.75297 4.647657)
      (xy 1.758678 4.73408)
      (xy 1.771804 4.790618)
      (xy 1.795306 4.831514)
      (xy 1.823386 4.862362)
      (xy 1.917688 4.921905)
      (xy 2.01894 4.926992)
      (xy 2.114636 4.877279)
      (xy 2.122084 4.870543)
      (xy 2.153874 4.835502)
      (xy 2.173808 4.793811)
      (xy 2.1846 4.731762)
      (xy 2.188965 4.635644)
      (xy 2.189655 4.529379)
      (xy 2.188159 4.39588)
      (xy 2.181964 4.306822)
      (xy 2.168514 4.248293)
      (xy 2.145251 4.206382)
      (xy 2.126175 4.184123)
      (xy 2.037563 4.127985)
      (xy 1.935508 4.121235)
      (xy 1.838095 4.164114)
      (xy 1.819296 4.180032)
      (xy 1.787293 4.215382)
      (xy 1.767318 4.257502)
      (xy 1.756593 4.320251)
      (xy 1.752339 4.417487)
      (xy 1.751724 4.517106)
      (xy 1.547761 4.517106)
      (xy 1.554504 4.341947)
      (xy 1.578472 4.204195)
      (xy 1.623548 4.100632)
      (xy 1.693928 4.019856)
      (xy 1.748743 3.978455)
      (xy 1.848376 3.933728)
      (xy 1.963855 3.912967)
      (xy 2.071199 3.918525)
      (xy 2.131264 3.940943)
      (xy 2.154835 3.947323)
      (xy 2.170477 3.923535)
      (xy 2.181395 3.859788)
      (xy 2.189655 3.762687)
      (xy 2.198699 3.654541)
      (xy 2.211261 3.589475)
      (xy 2.234119 3.552268)
      (xy 2.274051 3.527699)
      (xy 2.299138 3.516819)
      (xy 2.394023 3.477072)
      (xy 2.393914 4.154455)
    ) (layer "F.Cu") (width 0.01) (fill solid) (tstamp 598cd94d-6e33-4c81-9786-a290d94c6e59))
  (fp_poly (pts
      (xy 0.079944 3.92436)
      (xy 0.194343 3.966842)
      (xy 0.195652 3.967658)
      (xy 0.266403 4.01973)
      (xy 0.318636 4.080584)
      (xy 0.355371 4.159887)
      (xy 0.379634 4.267309)
      (xy 0.394445 4.412517)
      (xy 0.402829 4.605179)
      (xy 0.403564 4.632628)
      (xy 0.41412 5.046521)
      (xy 0.325291 5.092456)
      (xy 0.261018 5.123498)
      (xy 0.22221 5.138206)
      (xy 0.220415 5.138391)
      (xy 0.2137 5.11125)
      (xy 0.208365 5.038041)
      (xy 0.205083 4.931081)
      (xy 0.204368 4.844469)
      (xy 0.204351 4.704162)
      (xy 0.197937 4.616051)
      (xy 0.17558 4.574025)
      (xy 0.127732 4.571975)
      (xy 0.044849 4.60379)
      (xy -0.080287 4.662272)
      (xy -0.172303 4.710845)
      (xy -0.219629 4.752986)
      (xy -0.233542 4.798916)
      (xy -0.233563 4.801189)
      (xy -0.210605 4.880311)
      (xy -0.14263 4.923055)
      (xy -0.038602 4.929246)
      (xy 0.03633 4.928172)
      (xy 0.075839 4.949753)
      (xy 0.100478 5.001591)
      (xy 0.114659 5.067632)
      (xy 0.094223 5.105104)
      (xy 0.086528 5.110467)
      (xy 0.014083 5.132006)
      (xy -0.087367 5.135055)
      (xy -0.191843 5.120778)
      (xy -0.265875 5.094688)
      (xy -0.368228 5.007785)
      (xy -0.426409 4.886816)
      (xy -0.437931 4.792308)
      (xy -0.429138 4.707062)
      (xy -0.39732 4.637476)
      (xy -0.334316 4.575672)
      (xy -0.231969 4.513772)
      (xy -0.082118 4.443897)
      (xy -0.072988 4.439948)
      (xy 0.061997 4.377588)
      (xy 0.145294 4.326446)
      (xy 0.180997 4.280488)
      (xy 0.173203 4.233683)
      (xy 0.126007 4.179998)
      (xy 0.111894 4.167644)
      (xy 0.017359 4.119741)
      (xy -0.080594 4.121758)
      (xy -0.165903 4.168724)
      (xy -0.222504 4.255669)
      (xy -0.227763 4.272734)
      (xy -0.278977 4.355504)
      (xy -0.343963 4.395372)
      (xy -0.437931 4.434882)
      (xy -0.437931 4.332658)
      (xy -0.409347 4.184072)
      (xy -0.324505 4.047784)
      (xy -0.280355 4.002191)
      (xy -0.179995 3.943674)
      (xy -0.052365 3.917184)
      (xy 0.079944 3.92436)
    ) (layer "F.Cu") (width 0.01) (fill solid) (tstamp 5eda3266-4e63-4176-99b3-4daa82b37d30))
  (fp_poly (pts
      (xy -3.684448 3.884676)
      (xy -3.569342 3.962111)
      (xy -3.480389 4.073949)
      (xy -3.427251 4.216265)
      (xy -3.416503 4.321015)
      (xy -3.417724 4.364726)
      (xy -3.427944 4.398194)
      (xy -3.456039 4.428179)
      (xy -3.510884 4.46144)
      (xy -3.601355 4.504738)
      (xy -3.736328 4.564833)
      (xy -3.737011 4.565134)
      (xy -3.861249 4.622037)
      (xy -3.963127 4.672565)
      (xy -4.032233 4.71128)
      (xy -4.058154 4.73274)
      (xy -4.058161 4.732913)
      (xy -4.035315 4.779644)
      (xy -3.981891 4.831154)
      (xy -3.920558 4.868261)
      (xy -3.889485 4.875632)
      (xy -3.804711 4.850138)
      (xy -3.731707 4.786291)
      (xy -3.696087 4.716094)
      (xy -3.66182 4.664343)
      (xy -3.594697 4.605409)
      (xy -3.515792 4.554496)
      (xy -3.446179 4.526809)
      (xy -3.431623 4.525287)
      (xy -3.415237 4.550321)
      (xy -3.41425 4.614311)
      (xy -3.426292 4.700593)
      (xy -3.448993 4.792501)
      (xy -3.479986 4.873369)
      (xy -3.481552 4.876509)
      (xy -3.574819 5.006734)
      (xy -3.695696 5.095311)
      (xy -3.832973 5.138786)
      (xy -3.97544 5.133706)
      (xy -4.111888 5.076616)
      (xy -4.117955 5.072602)
      (xy -4.22529 4.975326)
      (xy -4.295868 4.848409)
      (xy -4.334926 4.681526)
      (xy -4.340168 4.634639)
      (xy -4.349452 4.413329)
      (xy -4.338322 4.310124)
      (xy -4.058161 4.310124)
      (xy -4.054521 4.374503)
      (xy -4.034611 4.393291)
      (xy -3.984974 4.379235)
      (xy -3.906733 4.346009)
      (xy -3.819274 4.304359)
      (xy -3.817101 4.303256)
      (xy -3.74297 4.264265)
      (xy -3.713219 4.238244)
      (xy -3.720555 4.210965)
      (xy -3.751447 4.175121)
      (xy -3.83004 4.123251)
      (xy -3.914677 4.119439)
      (xy -3.990597 4.157189)
      (xy -4.043035 4.230001)
      (xy -4.058161 4.310124)
      (xy -4.338322 4.310124)
      (xy -4.330356 4.236261)
      (xy -4.281366 4.095829)
      (xy -4.213164 3.997447)
      (xy -4.090065 3.89803)
      (xy -3.954472 3.848711)
      (xy -3.816045 3.845568)
      (xy -3.684448 3.884676)
    ) (layer "F.Cu") (width 0.01) (fill solid) (tstamp 86a5bd97-3c9a-44a0-870e-f5c3e22817e8))
  (fp_poly (pts
      (xy 0.209014 -5.547002)
      (xy 0.367006 -5.546137)
      (xy 0.481347 -5.543795)
      (xy 0.559407 -5.539238)
      (xy 0.608554 -5.53173)
      (xy 0.636159 -5.520534)
      (xy 0.649592 -5.504912)
      (xy 0.656221 -5.484127)
      (xy 0.656865 -5.481437)
      (xy 0.666935 -5.432887)
      (xy 0.685575 -5.337095)
      (xy 0.710845 -5.204257)
      (xy 0.740807 -5.044569)
      (xy 0.773522 -4.868226)
      (xy 0.774664 -4.862033)
      (xy 0.807433 -4.689218)
      (xy 0.838093 -4.536531)
      (xy 0.864664 -4.413129)
      (xy 0.885167 -4.328169)
      (xy 0.897626 -4.29081)
      (xy 0.89822 -4.290148)
      (xy 0.934919 -4.271905)
      (xy 1.010586 -4.241503)
      (xy 1.108878 -4.205507)
      (xy 1.109425 -4.205315)
      (xy 1.233233 -4.158778)
      (xy 1.379196 -4.099496)
      (xy 1.516781 -4.039891)
      (xy 1.523293 -4.036944)
      (xy 1.74739 -3.935235)
      (xy 2.243619 -4.274103)
      (xy 2.395846 -4.377408)
      (xy 2.533741 -4.469763)
      (xy 2.649315 -4.545916)
      (xy 2.734579 -4.600615)
      (xy 2.781544 -4.628607)
      (xy 2.786004 -4.630683)
      (xy 2.820134 -4.62144)
      (xy 2.883881 -4.576844)
      (xy 2.979731 -4.494791)
      (xy 3.110169 -4.373179)
      (xy 3.243328 -4.243795)
      (xy 3.371694 -4.116298)
      (xy 3.486581 -3.999954)
      (xy 3.581073 -3.901948)
      (xy 3.648253 -3.829464)
      (xy 3.681206 -3.789687)
      (xy 3.682432 -3.787639)
      (xy 3.686074 -3.760344)
      (xy 3.67235 -3.715766)
      (xy 3.637869 -3.647888)
      (xy 3.579239 -3.550689)
      (xy 3.49307 -3.418149)
      (xy 3.3782 -3.247524)
      (xy 3.276254 -3.097345)
      (xy 3.185123 -2.96265)
      (xy 3.110073 -2.85126)
      (xy 3.056369 -2.770995)
      (xy 3.02928 -2.729675)
      (xy 3.027574 -2.72687)
      (xy 3.030882 -2.687279)
      (xy 3.055953 -2.610331)
      (xy 3.097798 -2.510568)
      (xy 3.112712 -2.478709)
      (xy 3.177786 -2.336774)
      (xy 3.247212 -2.175727)
      (xy 3.303609 -2.036379)
      (xy 3.344247 -1.932956)
      (xy 3.376526 -1.854358)
      (xy 3.395178 -1.81328)
      (xy 3.397497 -1.810115)
      (xy 3.431803 -1.804872)
      (xy 3.512669 -1.790506)
      (xy 3.629343 -1.769063)
      (xy 3.771075 -1.742587)
      (xy 3.92711 -1.713123)
      (xy 4.086698 -1.682717)
      (xy 4.239085 -1.653412)
      (xy 4.373521 -1.627255)
      (xy 4.479252 -1.60629)
      (xy 4.545526 -1.592561)
      (xy 4.561782 -1.58868)
      (xy 4.578573 -1.5791)
      (xy 4.591249 -1.557464)
      (xy 4.600378 -1.516469)
      (xy 4.606531 -1.448811)
      (xy 4.61028 -1.347188)
      (xy 4.612192 -1.204297)
      (xy 4.61284 -1.012835)
      (xy 4.612874 -0.934355)
      (xy 4.612874 -0.296094)
      (xy 4.459598 -0.26584)
      (xy 4.374322 -0.249436)
      (xy 4.24707 -0.225491)
      (xy 4.093315 -0.196893)
      (xy 3.928534 -0.166533)
      (xy 3.882989 -0.158194)
      (xy 3.730932 -0.12863)
      (xy 3.598468 -0.099558)
      (xy 3.496714 -0.073671)
      (xy 3.436788 -0.053663)
      (xy 3.426805 -0.047699)
      (xy 3.402293 -0.005466)
      (xy 3.367148 0.07637)
      (xy 3.328173 0.181683)
      (xy 3.320442 0.204368)
      (xy 3.26936 0.345018)
      (xy 3.205954 0.503714)
      (xy 3.143904 0.646225)
      (xy 3.143598 0.646886)
      (xy 3.040267 0.87044)
      (xy 3.719961 1.870232)
      (xy 3.283621 2.3073)
      (xy 3.151649 2.437381)
      (xy 3.031279 2.552048)
      (xy 2.929273 2.645181)
      (xy 2.852391 2.710658)
      (xy 2.807393 2.742357)
      (xy 2.800938 2.744368)
      (xy 2.76304 2.728529)
      (xy 2.685708 2.684496)
      (xy 2.577389 2.61749)
      (xy 2.446532 2.532734)
      (xy 2.305052 2.437816)
      (xy 2.161461 2.340998)
      (xy 2.033435 2.256751)
      (xy 1.929105 2.190258)
      (xy 1.8566 2.146702)
      (xy 1.824158 2.131264)
      (xy 1.784576 2.144328)
      (xy 1.709519 2.17875)
      (xy 1.614468 2.22738)
      (xy 1.604392 2.232785)
      (xy 1.476391 2.29698)
      (xy 1.388618 2.328463)
      (xy 1.334028 2.328798)
      (xy 1.305575 2.299548)
      (xy 1.30541 2.299138)
      (xy 1.291188 2.264498)
      (xy 1.257269 2.182269)
      (xy 1.206284 2.058814)
      (xy 1.140862 1.900498)
      (xy 1.063634 1.713686)
      (xy 0.977229 1.504742)
      (xy 0.893551 1.302446)
      (xy 0.801588 1.0792)
      (xy 0.71715 0.872392)
      (xy 0.642769 0.688362)
      (xy 0.580974 0.533451)
      (xy 0.534297 0.413996)
      (xy 0.505268 0.336339)
      (xy 0.496322 0.307356)
      (xy 0.518756 0.27411)
      (xy 0.577439 0.221123)
      (xy 0.655689 0.162704)
      (xy 0.878534 -0.022048)
      (xy 1.052718 -0.233818)
      (xy 1.176154 -0.468144)
      (xy 1.246754 -0.720566)
      (xy 1.262431 -0.986623)
      (xy 1.251036 -1.109425)
      (xy 1.18895 -1.364207)
      (xy 1.082023 -1.589199)
      (xy 0.936889 -1.782183)
      (xy 0.760178 -1.940939)
      (xy 0.558522 -2.06325)
      (xy 0.338554 -2.146895)
      (xy 0.106906 -2.189656)
      (xy -0.129791 -2.189313)
      (xy -0.364905 -2.143648)
      (xy -0.591804 -2.050441)
      (xy -0.803856 -1.907473)
      (xy -0.892364 -1.826617)
      (xy -1.062111 -1.618993)
      (xy -1.180301 -1.392105)
      (xy -1.247722 -1.152567)
      (xy -1.26516 -0.906993)
      (xy -1.233402 -0.661997)
      (xy -1.153235 -0.424192)
      (xy -1.025445 -0.200193)
      (xy -0.85082 0.003387)
      (xy -0.655688 0.162704)
      (xy -0.574409 0.223602)
      (xy -0.516991 0.276015)
      (xy -0.496322 0.307406)
      (xy -0.507144 0.341639)
      (xy -0.537923 0.423419)
      (xy -0.586126 0.546407)
      (xy -0.649222 0.704263)
      (xy -0.724678 0.890649)
      (xy -0.809962 1.099226)
      (xy -0.893781 1.302496)
      (xy -0.986255 1.525933)
      (xy -1.071911 1.732984)
      (xy -1.148118 1.917286)
      (xy -1.212247 2.072475)
      (xy -1.261668 2.192188)
      (xy -1.293752 2.270061)
      (xy -1.305641 2.299138)
      (xy -1.333726 2.328677)
      (xy -1.388051 2.328591)
      (xy -1.475605 2.297326)
      (xy -1.603381 2.233329)
      (xy -1.604392 2.232785)
      (xy -1.700598 2.183121)
      (xy -1.778369 2.146945)
      (xy -1.822223 2.131408)
      (xy -1.824158 2.131264)
      (xy -1.857171 2.147024)
      (xy -1.930054 2.19085)
      (xy -2.034678 2.257557)
      (xy -2.16291 2.341964)
      (xy -2.305052 2.437816)
      (xy -2.449767 2.534867)
      (xy -2.580196 2.61927)
      (xy -2.68789 2.685801)
      (xy -2.764402 2.729238)
      (xy -2.800938 2.744368)
      (xy -2.834582 2.724482)
      (xy -2.902224 2.668903)
      (xy -2.997107 2.583754)
      (xy -3.11247 2.475153)
      (xy -3.241555 2.349221)
      (xy -3.283771 2.307149)
      (xy -3.720261 1.869931)
      (xy -3.388023 1.38234)
      (xy -3.287054 1.232605)
      (xy -3.198438 1.09822)
      (xy -3.127146 0.986969)
      (xy -3.07815 0.906639)
      (xy -3.056422 0.865014)
      (xy -3.055785 0.862053)
      (xy -3.06724 0.822818)
      (xy -3.098051 0.743895)
      (xy -3.142884 0.638509)
      (xy -3.174353 0.567954)
      (xy -3.233192 0.432876)
      (xy -3.288604 0.296409)
      (xy -3.331564 0.181103)
      (xy -3.343234 0.145977)
      (xy -3.376389 0.052174)
      (xy -3.408799 -0.020306)
      (xy -3.426601 -0.047699)
      (xy -3.465886 -0.064464)
      (xy -3.551626 -0.08823)
      (xy -3.672697 -0.116303)
      (xy -3.817973 -0.145991)
      (xy -3.882988 -0.158194)
      (xy -4.048087 -0.188532)
      (xy -4.206448 -0.217907)
      (xy -4.342596 -0.243431)
      (xy -4.441057 -0.262215)
      (xy -4.459598 -0.26584)
      (xy -4.612873 -0.296094)
      (xy -4.612873 -0.934355)
      (xy -4.612529 -1.14423)
      (xy -4.611116 -1.30302)
      (xy -4.608064 -1.418027)
      (xy -4.602803 -1.496554)
      (xy -4.594763 -1.545904)
      (xy -4.583373 -1.573381)
      (xy -4.568063 -1.586287)
      (xy -4.561782 -1.58868)
      (xy -4.523896 -1.597167)
      (xy -4.440195 -1.6141)
      (xy -4.321433 -1.637434)
      (xy -4.178361 -1.665125)
      (xy -4.021732 -1.695127)
      (xy -3.862297 -1.725396)
      (xy -3.710809 -1.753885)
      (xy -3.578019 -1.778551)
      (xy -3.474681 -1.797349)
      (xy -3.411545 -1.808233)
      (xy -3.397497 -1.810115)
      (xy -3.38477 -1.835296)
      (xy -3.3566 -1.902378)
      (xy -3.318252 -1.998667)
      (xy -3.303609 -2.036379)
      (xy -3.244548 -2.182079)
      (xy -3.175 -2.343049)
      (xy -3.112712 -2.478709)
      (xy -3.066879 -2.582439)
      (xy -3.036387 -2.667674)
      (xy -3.026208 -2.719874)
      (xy -3.027831 -2.72687)
      (xy -3.049343 -2.759898)
      (xy -3.098465 -2.833357)
      (xy -3.169923 -2.939423)
      (xy -3.258445 -3.070274)
      (xy -3.358759 -3.218088)
      (xy -3.378594 -3.247266)
      (xy -3.494988 -3.420137)
      (xy -3.580548 -3.551774)
      (xy -3.638684 -3.648239)
      (xy -3.672808 -3.715592)
      (xy -3.686331 -3.759894)
      (xy -3.682664 -3.787206)
      (xy -3.68257 -3.78738)
      (xy -3.653707 -3.823254)
      (xy -3.589867 -3.892609)
      (xy -3.497969 -3.988255)
      (xy -3.384933 -4.103001)
      (xy -3.257679 -4.229659)
      (xy -3.243328 -4.243795)
      (xy -3.082957 -4.399097)
      (xy -2.959195 -4.51313)
      (xy -2.869555 -4.587998)
      (xy -2.811552 -4.625804)
      (xy -2.786004 -4.630683)
      (xy -2.748718 -4.609397)
      (xy -2.671343 -4.560227)
      (xy -2.561867 -4.488425)
      (xy -2.42828 -4.399245)
      (xy -2.27857 -4.297937)
      (xy -2.243618 -4.274103)
      (xy -1.74739 -3.935235)
      (xy -1.523293 -4.036944)
      (xy -1.387011 -4.096217)
      (xy -1.240724 -4.15583)
      (xy -1.114965 -4.20336)
      (xy -1.109425 -4.205315)
      (xy -1.011057 -4.241323)
      (xy -0.935229 -4.271771)
      (xy -0.898282 -4.290095)
      (xy -0.89822 -4.290148)
      (xy -0.886496 -4.323271)
      (xy -0.866568 -4.404733)
      (xy -0.840413 -4.525375)
      (xy -0.81001 -4.676041)
      (xy -0.777337 -4.847572)
      (xy -0.774664 -4.862033)
      (xy -0.74189 -5.038765)
      (xy -0.711802 -5.19919)
      (xy -0.686339 -5.333112)
      (xy -0.667441 -5.430337)
      (xy -0.657047 -5.480668)
      (xy -0.656865 -5.481437)
      (xy -0.650539 -5.502847)
      (xy -0.638239 -5.519012)
      (xy -0.612594 -5.530669)
      (xy -0.566235 -5.538555)
      (xy -0.491792 -5.543407)
      (xy -0.381895 -5.545961)
      (xy -0.229175 -5.546955)
      (xy -0.026262 -5.547126)
      (xy 0 -5.547126)
      (xy 0.209014 -5.547002)
    ) (layer "F.Cu") (width 0.01) (fill solid) (tstamp b561e931-000e-4d39-8abd-5d34591bf73b))
  (fp_poly (pts
      (xy -2.582571 3.877719)
      (xy -2.488877 3.931914)
      (xy -2.423736 3.985707)
      (xy -2.376093 4.042066)
      (xy -2.343272 4.110987)
      (xy -2.322594 4.202468)
      (xy -2.31138 4.326506)
      (xy -2.306951 4.493098)
      (xy -2.306437 4.612851)
      (xy -2.306437 5.053659)
      (xy -2.430517 5.109283)
      (xy -2.554598 5.164907)
      (xy -2.569195 4.682095)
      (xy -2.575227 4.501779)
      (xy -2.581555 4.370901)
      (xy -2.589394 4.280511)
      (xy -2.599963 4.221664)
      (xy -2.614477 4.185413)
      (xy -2.634152 4.16281)
      (xy -2.640465 4.157917)
      (xy -2.736112 4.119706)
      (xy -2.832793 4.134827)
      (xy -2.890345 4.174943)
      (xy -2.913755 4.20337)
      (xy -2.929961 4.240672)
      (xy -2.940259 4.297223)
      (xy -2.945951 4.383394)
      (xy -2.948336 4.509558)
      (xy -2.948736 4.641042)
      (xy -2.948814 4.805999)
      (xy -2.951639 4.922761)
      (xy -2.961093 5.00151)
      (xy -2.98106 5.052431)
      (xy -3.015424 5.085706)
      (xy -3.068068 5.11152)
      (xy -3.138383 5.138344)
      (xy -3.21518 5.167542)
      (xy -3.206038 4.649346)
      (xy -3.202357 4.462539)
      (xy -3.19805 4.32449)
      (xy -3.191877 4.225568)
      (xy -3.182598 4.156145)
      (xy -3.168973 4.10659)
      (xy -3.149761 4.067273)
      (xy -3.126598 4.032584)
      (xy -3.014848 3.92177)
      (xy -2.878487 3.857689)
      (xy -2.730175 3.842339)
      (xy -2.582571 3.877719)
    ) (layer "F.Cu") (width 0.01) (fill solid) (tstamp cdfd9e18-5431-4f87-84a4-13d860ade4d3))
  (fp_poly (pts
      (xy -4.8281 3.861903)
      (xy -4.71655 3.917522)
      (xy -4.618092 4.019931)
      (xy -4.590977 4.057864)
      (xy -4.561438 4.1075)
      (xy -4.542272 4.161412)
      (xy -4.531307 4.233364)
      (xy -4.526371 4.337122)
      (xy -4.525287 4.474101)
      (xy -4.530182 4.661815)
      (xy -4.547196 4.802758)
      (xy -4.579823 4.907908)
      (xy -4.631558 4.988243)
      (xy -4.705896 5.054741)
      (xy -4.711358 5.058678)
      (xy -4.78462 5.098953)
      (xy -4.87284 5.11888)
      (xy -4.985038 5.123793)
      (xy -5.167433 5.123793)
      (xy -5.167509 5.300857)
      (xy -5.169207 5.39947)
      (xy -5.17955 5.457314)
      (xy -5.206578 5.492006)
      (xy -5.258332 5.521164)
      (xy -5.270761 5.527121)
      (xy -5.328923 5.555039)
      (xy -5.373956 5.572672)
      (xy -5.407441 5.574194)
      (xy -5.430962 5.553781)
      (xy -5.4461 5.505607)
      (xy -5.454437 5.423846)
      (xy -5.457556 5.302672)
      (xy -5.45704 5.13626)
      (xy -5.454471 4.918785)
      (xy -5.453668 4.853736)
      (xy -5.450778 4.629502)
      (xy -5.448188 4.482821)
      (xy -5.167586 4.482821)
      (xy -5.166009 4.607326)
      (xy -5.159 4.688787)
      (xy -5.143142 4.742515)
      (xy -5.115019 4.783823)
      (xy -5.095925 4.803971)
      (xy -5.017865 4.862921)
      (xy -4.948753 4.86772)
      (xy -4.87744 4.819038)
      (xy -4.875632 4.817241)
      (xy -4.846617 4.779618)
      (xy -4.828967 4.728484)
      (xy -4.820064 4.649738)
      (xy -4.817291 4.529276)
      (xy -4.817241 4.502588)
      (xy -4.823942 4.336583)
      (xy -4.845752 4.221505)
      (xy -4.885235 4.151254)
      (xy -4.944956 4.119729)
      (xy -4.979472 4.116552)
      (xy -5.061389 4.13146)
      (xy -5.117579 4.180548)
      (xy -5.151402 4.270362)
      (xy -5.16622 4.407445)
      (xy -5.167586 4.482821)
      (xy -5.448188 4.482821)
      (xy -5.447713 4.455952)
      (xy -5.443753 4.325382)
      (xy -5.438174 4.230087)
      (xy -5.430254 4.162364)
      (xy -5.419269 4.114507)
      (xy -5.404499 4.078813)
      (xy -5.385218 4.047578)
      (xy -5.376951 4.035824)
      (xy -5.267288 3.924797)
      (xy -5.128635 3.861847)
      (xy -4.968246 3.844297)
      (xy -4.8281 3.861903)
    ) (layer "F.Cu") (width 0.01) (fill solid) (tstamp d177a139-3f73-45cc-86ca-c08f11714d73))
  (fp_poly (pts
      (xy 1.065943 3.92192)
      (xy 1.198565 3.970859)
      (xy 1.30601 4.057419)
      (xy 1.348032 4.118352)
      (xy 1.393843 4.230161)
      (xy 1.392891 4.311006)
      (xy 1.344808 4.365378)
      (xy 1.327017 4.374624)
      (xy 1.250204 4.40345)
      (xy 1.210976 4.396065)
      (xy 1.197689 4.347658)
      (xy 1.197012 4.32092)
      (xy 1.172686 4.222548)
      (xy 1.109281 4.153734)
      (xy 1.021154 4.120498)
      (xy 0.922663 4.128861)
      (xy 0.842602 4.172296)
      (xy 0.815561 4.197072)
      (xy 0.796394 4.227129)
      (xy 0.783446 4.272565)
      (xy 0.775064 4.343476)
      (xy 0.769593 4.44996)
      (xy 0.765378 4.602112)
      (xy 0.764287 4.650287)
      (xy 0.760307 4.815095)
      (xy 0.755781 4.931088)
      (xy 0.748995 5.007833)
      (xy 0.738231 5.054893)
      (xy 0.721773 5.081835)
      (xy 0.697906 5.098223)
      (xy 0.682626 5.105463)
      (xy 0.617733 5.13022)
      (xy 0.579534 5.138391)
      (xy 0.566912 5.111103)
      (xy 0.559208 5.028603)
      (xy 0.55638 4.889941)
      (xy 0.558386 4.694162)
      (xy 0.559011 4.663965)
      (xy 0.563421 4.485349)
      (xy 0.568635 4.354923)
      (xy 0.576055 4.262492)
      (xy 0.587082 4.197858)
      (xy 0.603117 4.150825)
      (xy 0.625561 4.111196)
      (xy 0.637302 4.094215)
      (xy 0.704619 4.01908)
      (xy 0.77991 3.960638)
      (xy 0.789128 3.955536)
      (xy 0.924133 3.91526)
      (xy 1.065943 3.92192)
    ) (layer "F.Cu") (width 0.01) (fill solid) (tstamp d6496efe-43d8-47b3-9b91-0abcedf8bb73))
  (fp_poly (pts
      (xy -1.255402 3.723857)
      (xy -1.246846 3.843188)
      (xy -1.237019 3.913506)
      (xy -1.223401 3.944179)
      (xy -1.203473 3.944571)
      (xy -1.197011 3.94091)
      (xy -1.11106 3.914398)
      (xy -0.999255 3.915946)
      (xy -0.885586 3.943199)
      (xy -0.81449 3.978455)
      (xy -0.741595 4.034778)
      (xy -0.688307 4.098519)
      (xy -0.651725 4.17951)
      (xy -0.62895 4.287586)
      (xy -0.617081 4.43258)
      (xy -0.613218 4.624326)
      (xy -0.613149 4.661109)
      (xy -0.613103 5.074288)
      (xy -0.705046 5.106339)
      (xy -0.770348 5.128144)
      (xy -0.806176 5.138297)
      (xy -0.80723 5.138391)
      (xy -0.810758 5.11086)
      (xy -0.813761 5.034923)
      (xy -0.81601 4.920565)
      (xy -0.817276 4.777769)
      (xy -0.817471 4.690951)
      (xy -0.817877 4.519773)
      (xy -0.819968 4.397088)
      (xy -0.825053 4.313)
      (xy -0.83444 4.257614)
      (xy -0.849439 4.221032)
      (xy -0.871358 4.193359)
      (xy -0.885043 4.180032)
      (xy -0.979051 4.126328)
      (xy -1.081636 4.122307)
      (xy -1.17471 4.167725)
      (xy -1.191922 4.184123)
      (xy -1.217168 4.214957)
      (xy -1.23468 4.251531)
      (xy -1.245858 4.304415)
      (xy -1.252104 4.384177)
      (xy -1.254818 4.501385)
      (xy -1.255402 4.662991)
      (xy -1.255402 5.074288)
      (xy -1.347345 5.106339)
      (xy -1.412647 5.128144)
      (xy -1.448475 5.138297)
      (xy -1.449529 5.138391)
      (xy -1.452225 5.110448)
      (xy -1.454655 5.03163)
      (xy -1.456722 4.909453)
      (xy -1.458329 4.751432)
      (xy -1.459377 4.565083)
      (xy -1.459769 4.35792)
      (xy -1.45977 4.348706)
      (xy -1.45977 3.55902)
      (xy -1.364885 3.518997)
      (xy -1.27 3.478973)
      (xy -1.255402 3.723857)
    ) (layer "F.Cu") (width 0.01) (fill solid) (tstamp f3861927-5ae2-403d-b300-40c2a3ca66ec))
  (fp_poly (pts
      (xy -5.951779 3.866015)
      (xy -5.814939 3.937968)
      (xy -5.713949 4.053766)
      (xy -5.678075 4.128213)
      (xy -5.650161 4.239992)
      (xy -5.635871 4.381227)
      (xy -5.634516 4.535371)
      (xy -5.645405 4.685879)
      (xy -5.667847 4.816205)
      (xy -5.70115 4.909803)
      (xy -5.711385 4.925922)
      (xy -5.832618 5.046249)
      (xy -5.976613 5.118317)
      (xy -6.132861 5.139408)
      (xy -6.290852 5.106802)
      (xy -6.33482 5.087253)
      (xy -6.420444 5.027012)
      (xy -6.495592 4.947135)
      (xy -6.502694 4.937004)
      (xy -6.531561 4.888181)
      (xy -6.550643 4.83599)
      (xy -6.561916 4.767285)
      (xy -6.567355 4.668918)
      (xy -6.568938 4.527744)
      (xy -6.568965 4.496092)
      (xy -6.568893 4.486019)
      (xy -6.277011 4.486019)
      (xy -6.275313 4.619256)
      (xy -6.268628 4.707674)
      (xy -6.254575 4.764785)
      (xy -6.230771 4.804102)
      (xy -6.218621 4.817241)
      (xy -6.148764 4.867172)
      (xy -6.080941 4.864895)
      (xy -6.012365 4.821584)
      (xy -5.971465 4.775346)
      (xy -5.947242 4.707857)
      (xy -5.933639 4.601433)
      (xy -5.932706 4.58902)
      (xy -5.930384 4.396147)
      (xy -5.95465 4.2529)
      (xy -6.005176 4.16016)
      (xy -6.081632 4.118807)
      (xy -6.108924 4.116552)
      (xy -6.180589 4.127893)
      (xy -6.22961 4.167184)
      (xy -6.259582 4.242326)
      (xy -6.274101 4.361222)
      (xy -6.277011 4.486019)
      (xy -6.568893 4.486019)
      (xy -6.567878 4.345659)
      (xy -6.563312 4.240549)
      (xy -6.553312 4.167714)
      (xy -6.535921 4.114108)
      (xy -6.509184 4.066681)
      (xy -6.503276 4.057864)
      (xy -6.403968 3.939007)
      (xy -6.295758 3.870008)
      (xy -6.164019 3.842619)
      (xy -6.119283 3.841281)
      (xy -5.951779 3.866015)
    ) (layer "F.Cu") (width 0.01) (fill solid) (tstamp f49780ac-d3a7-4106-b031-925546e26236))
  (fp_poly (pts
      (xy 0.078978 3.924422)
      (xy 0.193377 3.966904)
      (xy 0.194686 3.96772)
      (xy 0.265437 4.019792)
      (xy 0.31767 4.080646)
      (xy 0.354405 4.159949)
      (xy 0.378668 4.267371)
      (xy 0.393479 4.412579)
      (xy 0.401863 4.605241)
      (xy 0.402598 4.63269)
      (xy 0.413154 5.046583)
      (xy 0.324325 5.092518)
      (xy 0.260052 5.12356)
      (xy 0.221244 5.138268)
      (xy 0.219449 5.138453)
      (xy 0.212734 5.111312)
      (xy 0.207399 5.038103)
      (xy 0.204117 4.931143)
      (xy 0.203402 4.844531)
      (xy 0.203385 4.704224)
      (xy 0.196971 4.616113)
      (xy 0.174614 4.574087)
      (xy 0.126766 4.572037)
      (xy 0.043883 4.603852)
      (xy -0.081253 4.662334)
      (xy -0.173269 4.710907)
      (xy -0.220595 4.753048)
      (xy -0.234508 4.798978)
      (xy -0.234529 4.801251)
      (xy -0.211571 4.880373)
      (xy -0.143596 4.923117)
      (xy -0.039568 4.929308)
      (xy 0.035364 4.928234)
      (xy 0.074873 4.949815)
      (xy 0.099512 5.001653)
      (xy 0.113693 5.067694)
      (xy 0.093257 5.105166)
      (xy 0.085562 5.110529)
      (xy 0.013117 5.132068)
      (xy -0.088333 5.135117)
      (xy -0.192809 5.12084)
      (xy -0.266841 5.09475)
      (xy -0.369194 5.007847)
      (xy -0.427375 4.886878)
      (xy -0.438897 4.79237)
      (xy -0.430104 4.707124)
      (xy -0.398286 4.637538)
      (xy -0.335282 4.575734)
      (xy -0.232935 4.513834)
      (xy -0.083084 4.443959)
      (xy -0.073954 4.44001)
      (xy 0.061031 4.37765)
      (xy 0.144328 4.326508)
      (xy 0.180031 4.28055)
      (xy 0.172237 4.233745)
      (xy 0.125041 4.18006)
      (xy 0.110928 4.167706)
      (xy 0.016393 4.119803)
      (xy -0.08156 4.12182)
      (xy -0.166869 4.168786)
      (xy -0.22347 4.255731)
      (xy -0.228729 4.272796)
      (xy -0.279943 4.355566)
      (xy -0.344929 4.395434)
      (xy -0.438897 4.434944)
      (xy -0.438897 4.33272)
      (xy -0.410313 4.184134)
      (xy -0.325471 4.047846)
      (xy -0.281321 4.002253)
      (xy -0.180961 3.943736)
      (xy -0.053331 3.917246)
      (xy 0.078978 3.924422)
    ) (layer "F.Mask") (width 0.01) (fill solid) (tstamp 001e5afb-a613-4149-80ce-7f0d8cecd46d))
  (fp_poly (pts
      (xy -1.256368 3.723919)
      (xy -1.247812 3.84325)
      (xy -1.237985 3.913568)
      (xy -1.224367 3.944241)
      (xy -1.204439 3.944633)
      (xy -1.197977 3.940972)
      (xy -1.112026 3.91446)
      (xy -1.000221 3.916008)
      (xy -0.886552 3.943261)
      (xy -0.815456 3.978517)
      (xy -0.742561 4.03484)
      (xy -0.689273 4.098581)
      (xy -0.652691 4.179572)
      (xy -0.629916 4.287648)
      (xy -0.618047 4.432642)
      (xy -0.614184 4.624388)
      (xy -0.614115 4.661171)
      (xy -0.614069 5.07435)
      (xy -0.706012 5.106401)
      (xy -0.771314 5.128206)
      (xy -0.807142 5.138359)
      (xy -0.808196 5.138453)
      (xy -0.811724 5.110922)
      (xy -0.814727 5.034985)
      (xy -0.816976 4.920627)
      (xy -0.818242 4.777831)
      (xy -0.818437 4.691013)
      (xy -0.818843 4.519835)
      (xy -0.820934 4.39715)
      (xy -0.826019 4.313062)
      (xy -0.835406 4.257676)
      (xy -0.850405 4.221094)
      (xy -0.872324 4.193421)
      (xy -0.886009 4.180094)
      (xy -0.980017 4.12639)
      (xy -1.082602 4.122369)
      (xy -1.175676 4.167787)
      (xy -1.192888 4.184185)
      (xy -1.218134 4.215019)
      (xy -1.235646 4.251593)
      (xy -1.246824 4.304477)
      (xy -1.25307 4.384239)
      (xy -1.255784 4.501447)
      (xy -1.256368 4.663053)
      (xy -1.256368 5.07435)
      (xy -1.348311 5.106401)
      (xy -1.413613 5.128206)
      (xy -1.449441 5.138359)
      (xy -1.450495 5.138453)
      (xy -1.453191 5.11051)
      (xy -1.455621 5.031692)
      (xy -1.457688 4.909515)
      (xy -1.459295 4.751494)
      (xy -1.460343 4.565145)
      (xy -1.460735 4.357982)
      (xy -1.460736 4.348768)
      (xy -1.460736 3.559082)
      (xy -1.365851 3.519059)
      (xy -1.270966 3.479035)
      (xy -1.256368 3.723919)
    ) (layer "F.Mask") (width 0.01) (fill solid) (tstamp 0a5860a9-d5c6-4b52-ada0-f659deb0d3c4))
  (fp_poly (pts
      (xy 6.342473 3.956602)
      (xy 6.457984 4.032096)
      (xy 6.513698 4.099679)
      (xy 6.557838 4.222317)
      (xy 6.561343 4.31936)
      (xy 6.553402 4.449118)
      (xy 6.254149 4.580101)
      (xy 6.108645 4.64702)
      (xy 6.013571 4.700852)
      (xy 5.964135 4.747478)
      (xy 5.955545 4.792782)
      (xy 5.983006 4.842644)
      (xy 6.013287 4.875694)
      (xy 6.101397 4.928695)
      (xy 6.19723 4.932409)
      (xy 6.285246 4.891103)
      (xy 6.349903 4.809045)
      (xy 6.361467 4.78007)
      (xy 6.416859 4.689571)
      (xy 6.480587 4.651002)
      (xy 6.568 4.618008)
      (xy 6.568 4.743096)
      (xy 6.560272 4.828218)
      (xy 6.53 4.9)
      (xy 6.466552 4.982418)
      (xy 6.457122 4.993128)
      (xy 6.386547 5.066453)
      (xy 6.325881 5.105804)
      (xy 6.249984 5.123907)
      (xy 6.187064 5.129836)
      (xy 6.074521 5.131313)
      (xy 5.994404 5.112597)
      (xy 5.944424 5.084809)
      (xy 5.865872 5.023703)
      (xy 5.811497 4.957616)
      (xy 5.777086 4.874503)
      (xy 5.758422 4.762316)
      (xy 5.75129 4.609008)
      (xy 5.750721 4.531198)
      (xy 5.752656 4.437915)
      (xy 5.928933 4.437915)
      (xy 5.930978 4.487958)
      (xy 5.936073 4.496154)
      (xy 5.9697 4.48502)
      (xy 6.042064 4.455555)
      (xy 6.138781 4.413663)
      (xy 6.159007 4.404659)
      (xy 6.281237 4.342504)
      (xy 6.348581 4.287877)
      (xy 6.363382 4.236711)
      (xy 6.327981 4.184938)
      (xy 6.298745 4.162062)
      (xy 6.19325 4.116312)
      (xy 6.09451 4.12387)
      (xy 6.011846 4.179713)
      (xy 5.954582 4.278815)
      (xy 5.936222 4.357476)
      (xy 5.928933 4.437915)
      (xy 5.752656 4.437915)
      (xy 5.754493 4.349413)
      (xy 5.768393 4.214915)
      (xy 5.795928 4.116978)
      (xy 5.840606 4.044873)
      (xy 5.905935 3.987875)
      (xy 5.934417 3.969455)
      (xy 6.063797 3.921484)
      (xy 6.205446 3.918465)
      (xy 6.342473 3.956602)
    ) (layer "F.Mask") (width 0.01) (fill solid) (tstamp 1fecdaea-9f91-4e4b-9b68-d3195eb22060))
  (fp_poly (pts
      (xy -3.685414 3.884738)
      (xy -3.570308 3.962173)
      (xy -3.481355 4.074011)
      (xy -3.428217 4.216327)
      (xy -3.417469 4.321077)
      (xy -3.41869 4.364788)
      (xy -3.42891 4.398256)
      (xy -3.457005 4.428241)
      (xy -3.51185 4.461502)
      (xy -3.602321 4.5048)
      (xy -3.737294 4.564895)
      (xy -3.737977 4.565196)
      (xy -3.862215 4.622099)
      (xy -3.964093 4.672627)
      (xy -4.033199 4.711342)
      (xy -4.05912 4.732802)
      (xy -4.059127 4.732975)
      (xy -4.036281 4.779706)
      (xy -3.982857 4.831216)
      (xy -3.921524 4.868323)
      (xy -3.890451 4.875694)
      (xy -3.805677 4.8502)
      (xy -3.732673 4.786353)
      (xy -3.697053 4.716156)
      (xy -3.662786 4.664405)
      (xy -3.595663 4.605471)
      (xy -3.516758 4.554558)
      (xy -3.447145 4.526871)
      (xy -3.432589 4.525349)
      (xy -3.416203 4.550383)
      (xy -3.415216 4.614373)
      (xy -3.427258 4.700655)
      (xy -3.449959 4.792563)
      (xy -3.480952 4.873431)
      (xy -3.482518 4.876571)
      (xy -3.575785 5.006796)
      (xy -3.696662 5.095373)
      (xy -3.833939 5.138848)
      (xy -3.976406 5.133768)
      (xy -4.112854 5.076678)
      (xy -4.118921 5.072664)
      (xy -4.226256 4.975388)
      (xy -4.296834 4.848471)
      (xy -4.335892 4.681588)
      (xy -4.341134 4.634701)
      (xy -4.350418 4.413391)
      (xy -4.339288 4.310186)
      (xy -4.059127 4.310186)
      (xy -4.055487 4.374565)
      (xy -4.035577 4.393353)
      (xy -3.98594 4.379297)
      (xy -3.907699 4.346071)
      (xy -3.82024 4.304421)
      (xy -3.818067 4.303318)
      (xy -3.743936 4.264327)
      (xy -3.714185 4.238306)
      (xy -3.721521 4.211027)
      (xy -3.752413 4.175183)
      (xy -3.831006 4.123313)
      (xy -3.915643 4.119501)
      (xy -3.991563 4.157251)
      (xy -4.044001 4.230063)
      (xy -4.059127 4.310186)
      (xy -4.339288 4.310186)
      (xy -4.331322 4.236323)
      (xy -4.282332 4.095891)
      (xy -4.21413 3.997509)
      (xy -4.091031 3.898092)
      (xy -3.955438 3.848773)
      (xy -3.817011 3.84563)
      (xy -3.685414 3.884738)
    ) (layer "F.Mask") (width 0.01) (fill solid) (tstamp 2ab6877a-bbf2-4dd6-b062-b739372aa07a))
  (fp_poly (pts
      (xy 1.064977 3.921982)
      (xy 1.197599 3.970921)
      (xy 1.305044 4.057481)
      (xy 1.347066 4.118414)
      (xy 1.392877 4.230223)
      (xy 1.391925 4.311068)
      (xy 1.343842 4.36544)
      (xy 1.326051 4.374686)
      (xy 1.249238 4.403512)
      (xy 1.21001 4.396127)
      (xy 1.196723 4.34772)
      (xy 1.196046 4.320982)
      (xy 1.17172 4.22261)
      (xy 1.108315 4.153796)
      (xy 1.020188 4.12056)
      (xy 0.921697 4.128923)
      (xy 0.841636 4.172358)
      (xy 0.814595 4.197134)
      (xy 0.795428 4.227191)
      (xy 0.78248 4.272627)
      (xy 0.774098 4.343538)
      (xy 0.768627 4.450022)
      (xy 0.764412 4.602174)
      (xy 0.763321 4.650349)
      (xy 0.759341 4.815157)
      (xy 0.754815 4.93115)
      (xy 0.748029 5.007895)
      (xy 0.737265 5.054955)
      (xy 0.720807 5.081897)
      (xy 0.69694 5.098285)
      (xy 0.68166 5.105525)
      (xy 0.616767 5.130282)
      (xy 0.578568 5.138453)
      (xy 0.565946 5.111165)
      (xy 0.558242 5.028665)
      (xy 0.555414 4.890003)
      (xy 0.55742 4.694224)
      (xy 0.558045 4.664027)
      (xy 0.562455 4.485411)
      (xy 0.567669 4.354985)
      (xy 0.575089 4.262554)
      (xy 0.586116 4.19792)
      (xy 0.602151 4.150887)
      (xy 0.624595 4.111258)
      (xy 0.636336 4.094277)
      (xy 0.703653 4.019142)
      (xy 0.778944 3.9607)
      (xy 0.788162 3.955598)
      (xy 0.923167 3.915322)
      (xy 1.064977 3.921982)
    ) (layer "F.Mask") (width 0.01) (fill solid) (tstamp 2c5ed1c0-a69a-404e-8e8a-78db92bf82cc))
  (fp_poly (pts
      (xy -4.829066 3.861965)
      (xy -4.717516 3.917584)
      (xy -4.619058 4.019993)
      (xy -4.591943 4.057926)
      (xy -4.562404 4.107562)
      (xy -4.543238 4.161474)
      (xy -4.532273 4.233426)
      (xy -4.527337 4.337184)
      (xy -4.526253 4.474163)
      (xy -4.531148 4.661877)
      (xy -4.548162 4.80282)
      (xy -4.580789 4.90797)
      (xy -4.632524 4.988305)
      (xy -4.706862 5.054803)
      (xy -4.712324 5.05874)
      (xy -4.785586 5.099015)
      (xy -4.873806 5.118942)
      (xy -4.986004 5.123855)
      (xy -5.168399 5.123855)
      (xy -5.168475 5.300919)
      (xy -5.170173 5.399532)
      (xy -5.180516 5.457376)
      (xy -5.207544 5.492068)
      (xy -5.259298 5.521226)
      (xy -5.271727 5.527183)
      (xy -5.329889 5.555101)
      (xy -5.374922 5.572734)
      (xy -5.408407 5.574256)
      (xy -5.431928 5.553843)
      (xy -5.447066 5.505669)
      (xy -5.455403 5.423908)
      (xy -5.458522 5.302734)
      (xy -5.458006 5.136322)
      (xy -5.455437 4.918847)
      (xy -5.454634 4.853798)
      (xy -5.451744 4.629564)
      (xy -5.449154 4.482883)
      (xy -5.168552 4.482883)
      (xy -5.166975 4.607388)
      (xy -5.159966 4.688849)
      (xy -5.144108 4.742577)
      (xy -5.115985 4.783885)
      (xy -5.096891 4.804033)
      (xy -5.018831 4.862983)
      (xy -4.949719 4.867782)
      (xy -4.878406 4.8191)
      (xy -4.876598 4.817303)
      (xy -4.847583 4.77968)
      (xy -4.829933 4.728546)
      (xy -4.82103 4.6498)
      (xy -4.818257 4.529338)
      (xy -4.818207 4.50265)
      (xy -4.824908 4.336645)
      (xy -4.846718 4.221567)
      (xy -4.886201 4.151316)
      (xy -4.945922 4.119791)
      (xy -4.980438 4.116614)
      (xy -5.062355 4.131522)
      (xy -5.118545 4.18061)
      (xy -5.152368 4.270424)
      (xy -5.167186 4.407507)
      (xy -5.168552 4.482883)
      (xy -5.449154 4.482883)
      (xy -5.448679 4.456014)
      (xy -5.444719 4.325444)
      (xy -5.43914 4.230149)
      (xy -5.43122 4.162426)
      (xy -5.420235 4.114569)
      (xy -5.405465 4.078875)
      (xy -5.386184 4.04764)
      (xy -5.377917 4.035886)
      (xy -5.268254 3.924859)
      (xy -5.129601 3.861909)
      (xy -4.969212 3.844359)
      (xy -4.829066 3.861965)
    ) (layer "F.Mask") (width 0.01) (fill solid) (tstamp 70af343a-db4d-474e-be02-e5206107960e))
  (fp_poly (pts
      (xy 4.31344 3.935218)
      (xy 4.397503 3.973455)
      (xy 4.463484 4.019788)
      (xy 4.511828 4.071594)
      (xy 4.545206 4.138425)
      (xy 4.566287 4.229831)
      (xy 4.577741 4.355363)
      (xy 4.582237 4.52457)
      (xy 4.582712 4.635995)
      (xy 4.582712 5.070689)
      (xy 4.50835 5.104571)
      (xy 4.44978 5.129334)
      (xy 4.420764 5.138453)
      (xy 4.415213 5.111319)
      (xy 4.410809 5.038156)
      (xy 4.408112 4.931325)
      (xy 4.40754 4.846499)
      (xy 4.40508 4.723949)
      (xy 4.398446 4.62673)
      (xy 4.38876 4.567196)
      (xy 4.381066 4.554545)
      (xy 4.329345 4.567464)
      (xy 4.248151 4.600601)
      (xy 4.154136 4.645523)
      (xy 4.063951 4.693797)
      (xy 3.994249 4.73699)
      (xy 3.961682 4.76667)
      (xy 3.961553 4.766991)
      (xy 3.964354 4.821919)
      (xy 3.989473 4.874354)
      (xy 4.033575 4.916943)
      (xy 4.097943 4.931188)
      (xy 4.152955 4.929528)
      (xy 4.230869 4.928307)
      (xy 4.271766 4.94656)
      (xy 4.296329 4.994788)
      (xy 4.299426 5.003882)
      (xy 4.310074 5.07266)
      (xy 4.281599 5.114422)
      (xy 4.207378 5.134325)
      (xy 4.127202 5.138006)
      (xy 3.982924 5.11072)
      (xy 3.908237 5.071752)
      (xy 3.815997 4.98021)
      (xy 3.767077 4.867844)
      (xy 3.762688 4.749113)
      (xy 3.804035 4.638473)
      (xy 3.866231 4.569142)
      (xy 3.928328 4.530327)
      (xy 4.025929 4.481187)
      (xy 4.139666 4.431354)
      (xy 4.158624 4.423739)
      (xy 4.283555 4.368607)
      (xy 4.355573 4.320016)
      (xy 4.378734 4.271709)
      (xy 4.357098 4.217432)
      (xy 4.319954 4.175005)
      (xy 4.232161 4.122764)
      (xy 4.135564 4.118846)
      (xy 4.046978 4.159103)
      (xy 3.98322 4.239388)
      (xy 3.974851 4.260102)
      (xy 3.92613 4.336287)
      (xy 3.854999 4.392847)
      (xy 3.765241 4.439263)
      (xy 3.765241 4.307646)
      (xy 3.770524 4.22723)
      (xy 3.793176 4.163848)
      (xy 3.843401 4.096225)
      (xy 3.891616 4.044138)
      (xy 3.966588 3.970384)
      (xy 4.02484 3.930764)
      (xy 4.087406 3.914872)
      (xy 4.158227 3.912246)
      (xy 4.31344 3.935218)
    ) (layer "F.Mask") (width 0.01) (fill solid) (tstamp 82613d04-9073-43e3-b326-0c0de93d4106))
  (fp_poly (pts
      (xy -2.583537 3.877781)
      (xy -2.489843 3.931976)
      (xy -2.424702 3.985769)
      (xy -2.377059 4.042128)
      (xy -2.344238 4.111049)
      (xy -2.32356 4.20253)
      (xy -2.312346 4.326568)
      (xy -2.307917 4.49316)
      (xy -2.307403 4.612913)
      (xy -2.307403 5.053721)
      (xy -2.431483 5.109345)
      (xy -2.555564 5.164969)
      (xy -2.570161 4.682157)
      (xy -2.576193 4.501841)
      (xy -2.582521 4.370963)
      (xy -2.59036 4.280573)
      (xy -2.600929 4.221726)
      (xy -2.615443 4.185475)
      (xy -2.635118 4.162872)
      (xy -2.641431 4.157979)
      (xy -2.737078 4.119768)
      (xy -2.833759 4.134889)
      (xy -2.891311 4.175005)
      (xy -2.914721 4.203432)
      (xy -2.930927 4.240734)
      (xy -2.941225 4.297285)
      (xy -2.946917 4.383456)
      (xy -2.949302 4.50962)
      (xy -2.949702 4.641104)
      (xy -2.94978 4.806061)
      (xy -2.952605 4.922823)
      (xy -2.962059 5.001572)
      (xy -2.982026 5.052493)
      (xy -3.01639 5.085768)
      (xy -3.069034 5.111582)
      (xy -3.139349 5.138406)
      (xy -3.216146 5.167604)
      (xy -3.207004 4.649408)
      (xy -3.203323 4.462601)
      (xy -3.199016 4.324552)
      (xy -3.192843 4.22563)
      (xy -3.183564 4.156207)
      (xy -3.169939 4.106652)
      (xy -3.150727 4.067335)
      (xy -3.127564 4.032646)
      (xy -3.015814 3.921832)
      (xy -2.879453 3.857751)
      (xy -2.731141 3.842401)
      (xy -2.583537 3.877781)
    ) (layer "F.Mask") (width 0.01) (fill solid) (tstamp 8ad4e51f-20f0-4508-905a-decfaca94fd9))
  (fp_poly (pts
      (xy 0.208048 -5.54694)
      (xy 0.36604 -5.546075)
      (xy 0.480381 -5.543733)
      (xy 0.558441 -5.539176)
      (xy 0.607588 -5.531668)
      (xy 0.635193 -5.520472)
      (xy 0.648626 -5.50485)
      (xy 0.655255 -5.484065)
      (xy 0.655899 -5.481375)
      (xy 0.665969 -5.432825)
      (xy 0.684609 -5.337033)
      (xy 0.709879 -5.204195)
      (xy 0.739841 -5.044507)
      (xy 0.772556 -4.868164)
      (xy 0.773698 -4.861971)
      (xy 0.806467 -4.689156)
      (xy 0.837127 -4.536469)
      (xy 0.863698 -4.413067)
      (xy 0.884201 -4.328107)
      (xy 0.89666 -4.290748)
      (xy 0.897254 -4.290086)
      (xy 0.933953 -4.271843)
      (xy 1.00962 -4.241441)
      (xy 1.107912 -4.205445)
      (xy 1.108459 -4.205253)
      (xy 1.232267 -4.158716)
      (xy 1.37823 -4.099434)
      (xy 1.515815 -4.039829)
      (xy 1.522327 -4.036882)
      (xy 1.746424 -3.935173)
      (xy 2.242653 -4.274041)
      (xy 2.39488 -4.377346)
      (xy 2.532775 -4.469701)
      (xy 2.648349 -4.545854)
      (xy 2.733613 -4.600553)
      (xy 2.780578 -4.628545)
      (xy 2.785038 -4.630621)
      (xy 2.819168 -4.621378)
      (xy 2.882915 -4.576782)
      (xy 2.978765 -4.494729)
      (xy 3.109203 -4.373117)
      (xy 3.242362 -4.243733)
      (xy 3.370728 -4.116236)
      (xy 3.485615 -3.999892)
      (xy 3.580107 -3.901886)
      (xy 3.647287 -3.829402)
      (xy 3.68024 -3.789625)
      (xy 3.681466 -3.787577)
      (xy 3.685108 -3.760282)
      (xy 3.671384 -3.715704)
      (xy 3.636903 -3.647826)
      (xy 3.578273 -3.550627)
      (xy 3.492104 -3.418087)
      (xy 3.377234 -3.247462)
      (xy 3.275288 -3.097283)
      (xy 3.184157 -2.962588)
      (xy 3.109107 -2.851198)
      (xy 3.055403 -2.770933)
      (xy 3.028314 -2.729613)
      (xy 3.026608 -2.726808)
      (xy 3.029916 -2.687217)
      (xy 3.054987 -2.610269)
      (xy 3.096832 -2.510506)
      (xy 3.111746 -2.478647)
      (xy 3.17682 -2.336712)
      (xy 3.246246 -2.175665)
      (xy 3.302643 -2.036317)
      (xy 3.343281 -1.932894)
      (xy 3.37556 -1.854296)
      (xy 3.394212 -1.813218)
      (xy 3.396531 -1.810053)
      (xy 3.430837 -1.80481)
      (xy 3.511703 -1.790444)
      (xy 3.628377 -1.769001)
      (xy 3.770109 -1.742525)
      (xy 3.926144 -1.713061)
      (xy 4.085732 -1.682655)
      (xy 4.238119 -1.65335)
      (xy 4.372555 -1.627193)
      (xy 4.478286 -1.606228)
      (xy 4.54456 -1.592499)
      (xy 4.560816 -1.588618)
      (xy 4.577607 -1.579038)
      (xy 4.590283 -1.557402)
      (xy 4.599412 -1.516407)
      (xy 4.605565 -1.448749)
      (xy 4.609314 -1.347126)
      (xy 4.611226 -1.204235)
      (xy 4.611874 -1.012773)
      (xy 4.611908 -0.934293)
      (xy 4.611908 -0.296032)
      (xy 4.458632 -0.265778)
      (xy 4.373356 -0.249374)
      (xy 4.246104 -0.225429)
      (xy 4.092349 -0.196831)
      (xy 3.927568 -0.166471)
      (xy 3.882023 -0.158132)
      (xy 3.729966 -0.128568)
      (xy 3.597502 -0.099496)
      (xy 3.495748 -0.073609)
      (xy 3.435822 -0.053601)
      (xy 3.425839 -0.047637)
      (xy 3.401327 -0.005404)
      (xy 3.366182 0.076432)
      (xy 3.327207 0.181745)
      (xy 3.319476 0.20443)
      (xy 3.268394 0.34508)
      (xy 3.204988 0.503776)
      (xy 3.142938 0.646287)
      (xy 3.142632 0.646948)
      (xy 3.039301 0.870502)
      (xy 3.718995 1.870294)
      (xy 3.282655 2.307362)
      (xy 3.150683 2.437443)
      (xy 3.030313 2.55211)
      (xy 2.928307 2.645243)
      (xy 2.851425 2.71072)
      (xy 2.806427 2.742419)
      (xy 2.799972 2.74443)
      (xy 2.762074 2.728591)
      (xy 2.684742 2.684558)
      (xy 2.576423 2.617552)
      (xy 2.445566 2.532796)
      (xy 2.304086 2.437878)
      (xy 2.160495 2.34106)
      (xy 2.032469 2.256813)
      (xy 1.928139 2.19032)
      (xy 1.855634 2.146764)
      (xy 1.823192 2.131326)
      (xy 1.78361 2.14439)
      (xy 1.708553 2.178812)
      (xy 1.613502 2.227442)
      (xy 1.603426 2.232847)
      (xy 1.475425 2.297042)
      (xy 1.387652 2.328525)
      (xy 1.333062 2.32886)
      (xy 1.304609 2.29961)
      (xy 1.304444 2.2992)
      (xy 1.290222 2.26456)
      (xy 1.256303 2.182331)
      (xy 1.205318 2.058876)
      (xy 1.139896 1.90056)
      (xy 1.062668 1.713748)
      (xy 0.976263 1.504804)
      (xy 0.892585 1.302508)
      (xy 0.800622 1.079262)
      (xy 0.716184 0.872454)
      (xy 0.641803 0.688424)
      (xy 0.580008 0.533513)
      (xy 0.533331 0.414058)
      (xy 0.504302 0.336401)
      (xy 0.495356 0.307418)
      (xy 0.51779 0.274172)
      (xy 0.576473 0.221185)
      (xy 0.654723 0.162766)
      (xy 0.877568 -0.021986)
      (xy 1.051752 -0.233756)
      (xy 1.175188 -0.468082)
      (xy 1.245788 -0.720504)
      (xy 1.261465 -0.986561)
      (xy 1.25007 -1.109363)
      (xy 1.187984 -1.364145)
      (xy 1.081057 -1.589137)
      (xy 0.935923 -1.782121)
      (xy 0.759212 -1.940877)
      (xy 0.557556 -2.063188)
      (xy 0.337588 -2.146833)
      (xy 0.10594 -2.189594)
      (xy -0.130757 -2.189251)
      (xy -0.365871 -2.143586)
      (xy -0.59277 -2.050379)
      (xy -0.804822 -1.907411)
      (xy -0.89333 -1.826555)
      (xy -1.063077 -1.618931)
      (xy -1.181267 -1.392043)
      (xy -1.248688 -1.152505)
      (xy -1.266126 -0.906931)
      (xy -1.234368 -0.661935)
      (xy -1.154201 -0.42413)
      (xy -1.026411 -0.200131)
      (xy -0.851786 0.003449)
      (xy -0.656654 0.162766)
      (xy -0.575375 0.223664)
      (xy -0.517957 0.276077)
      (xy -0.497288 0.307468)
      (xy -0.50811 0.341701)
      (xy -0.538889 0.423481)
      (xy -0.587092 0.546469)
      (xy -0.650188 0.704325)
      (xy -0.725644 0.890711)
      (xy -0.810928 1.099288)
      (xy -0.894747 1.302558)
      (xy -0.987221 1.525995)
      (xy -1.072877 1.733046)
      (xy -1.149084 1.917348)
      (xy -1.213213 2.072537)
      (xy -1.262634 2.19225)
      (xy -1.294718 2.270123)
      (xy -1.306607 2.2992)
      (xy -1.334692 2.328739)
      (xy -1.389017 2.328653)
      (xy -1.476571 2.297388)
      (xy -1.604347 2.233391)
      (xy -1.605358 2.232847)
      (xy -1.701564 2.183183)
      (xy -1.779335 2.147007)
      (xy -1.823189 2.13147)
      (xy -1.825124 2.131326)
      (xy -1.858137 2.147086)
      (xy -1.93102 2.190912)
      (xy -2.035644 2.257619)
      (xy -2.163876 2.342026)
      (xy -2.306018 2.437878)
      (xy -2.450733 2.534929)
      (xy -2.581162 2.619332)
      (xy -2.688856 2.685863)
      (xy -2.765368 2.7293)
      (xy -2.801904 2.74443)
      (xy -2.835548 2.724544)
      (xy -2.90319 2.668965)
      (xy -2.998073 2.583816)
      (xy -3.113436 2.475215)
      (xy -3.242521 2.349283)
      (xy -3.284737 2.307211)
      (xy -3.721227 1.869993)
      (xy -3.388989 1.382402)
      (xy -3.28802 1.232667)
      (xy -3.199404 1.098282)
      (xy -3.128112 0.987031)
      (xy -3.079116 0.906701)
      (xy -3.057388 0.865076)
      (xy -3.056751 0.862115)
      (xy -3.068206 0.82288)
      (xy -3.099017 0.743957)
      (xy -3.14385 0.638571)
      (xy -3.175319 0.568016)
      (xy -3.234158 0.432938)
      (xy -3.28957 0.296471)
      (xy -3.33253 0.181165)
      (xy -3.3442 0.146039)
      (xy -3.377355 0.052236)
      (xy -3.409765 -0.020244)
      (xy -3.427567 -0.047637)
      (xy -3.466852 -0.064402)
      (xy -3.552592 -0.088168)
      (xy -3.673663 -0.116241)
      (xy -3.818939 -0.145929)
      (xy -3.883954 -0.158132)
      (xy -4.049053 -0.18847)
      (xy -4.207414 -0.217845)
      (xy -4.343562 -0.243369)
      (xy -4.442023 -0.262153)
      (xy -4.460564 -0.265778)
      (xy -4.613839 -0.296032)
      (xy -4.613839 -0.934293)
      (xy -4.613495 -1.144168)
      (xy -4.612082 -1.302958)
      (xy -4.60903 -1.417965)
      (xy -4.603769 -1.496492)
      (xy -4.595729 -1.545842)
      (xy -4.584339 -1.573319)
      (xy -4.569029 -1.586225)
      (xy -4.562748 -1.588618)
      (xy -4.524862 -1.597105)
      (xy -4.441161 -1.614038)
      (xy -4.322399 -1.637372)
      (xy -4.179327 -1.665063)
      (xy -4.022698 -1.695065)
      (xy -3.863263 -1.725334)
      (xy -3.711775 -1.753823)
      (xy -3.578985 -1.778489)
      (xy -3.475647 -1.797287)
      (xy -3.412511 -1.808171)
      (xy -3.398463 -1.810053)
      (xy -3.385736 -1.835234)
      (xy -3.357566 -1.902316)
      (xy -3.319218 -1.998605)
      (xy -3.304575 -2.036317)
      (xy -3.245514 -2.182017)
      (xy -3.175966 -2.342987)
      (xy -3.113678 -2.478647)
      (xy -3.067845 -2.582377)
      (xy -3.037353 -2.667612)
      (xy -3.027174 -2.719812)
      (xy -3.028797 -2.726808)
      (xy -3.050309 -2.759836)
      (xy -3.099431 -2.833295)
      (xy -3.170889 -2.939361)
      (xy -3.259411 -3.070212)
      (xy -3.359725 -3.218026)
      (xy -3.37956 -3.247204)
      (xy -3.495954 -3.420075)
      (xy -3.581514 -3.551712)
      (xy -3.63965 -3.648177)
      (xy -3.673774 -3.71553)
      (xy -3.687297 -3.759832)
      (xy -3.68363 -3.787144)
      (xy -3.683536 -3.787318)
      (xy -3.654673 -3.823192)
      (xy -3.590833 -3.892547)
      (xy -3.498935 -3.988193)
      (xy -3.385899 -4.102939)
      (xy -3.258645 -4.229597)
      (xy -3.244294 -4.243733)
      (xy -3.083923 -4.399035)
      (xy -2.960161 -4.513068)
      (xy -2.870521 -4.587936)
      (xy -2.812518 -4.625742)
      (xy -2.78697 -4.630621)
      (xy -2.749684 -4.609335)
      (xy -2.672309 -4.560165)
      (xy -2.562833 -4.488363)
      (xy -2.429246 -4.399183)
      (xy -2.279536 -4.297875)
      (xy -2.244584 -4.274041)
      (xy -1.748356 -3.935173)
      (xy -1.524259 -4.036882)
      (xy -1.387977 -4.096155)
      (xy -1.24169 -4.155768)
      (xy -1.115931 -4.203298)
      (xy -1.110391 -4.205253)
      (xy -1.012023 -4.241261)
      (xy -0.936195 -4.271709)
      (xy -0.899248 -4.290033)
      (xy -0.899186 -4.290086)
      (xy -0.887462 -4.323209)
      (xy -0.867534 -4.404671)
      (xy -0.841379 -4.525313)
      (xy -0.810976 -4.675979)
      (xy -0.778303 -4.84751)
      (xy -0.77563 -4.861971)
      (xy -0.742856 -5.038703)
      (xy -0.712768 -5.199128)
      (xy -0.687305 -5.33305)
      (xy -0.668407 -5.430275)
      (xy -0.658013 -5.480606)
      (xy -0.657831 -5.481375)
      (xy -0.651505 -5.502785)
      (xy -0.639205 -5.51895)
      (xy -0.61356 -5.530607)
      (xy -0.567201 -5.538493)
      (xy -0.492758 -5.543345)
      (xy -0.382861 -5.545899)
      (xy -0.230141 -5.546893)
      (xy -0.027228 -5.547064)
      (xy -0.000966 -5.547064)
      (xy 0.208048 -5.54694)
    ) (layer "F.Mask") (width 0.01) (fill solid) (tstamp 8b6e3169-aea7-4ed5-90b0-22850ef25afe))
  (fp_poly (pts
      (xy 2.392948 4.154517)
      (xy 2.392577 4.372723)
      (xy 2.391142 4.540581)
      (xy 2.388036 4.666132)
      (xy 2.382656 4.757417)
      (xy 2.374396 4.822477)
      (xy 2.36265 4.869353)
      (xy 2.346815 4.906086)
      (xy 2.334824 4.927053)
      (xy 2.235524 5.040756)
      (xy 2.109622 5.112027)
      (xy 1.970325 5.1376)
      (xy 1.830839 5.114212)
      (xy 1.747777 5.072181)
      (xy 1.660579 4.999473)
      (xy 1.601151 4.910674)
      (xy 1.565295 4.794382)
      (xy 1.548815 4.639197)
      (xy 1.546481 4.525349)
      (xy 1.546795 4.517168)
      (xy 1.750758 4.517168)
      (xy 1.752004 4.647719)
      (xy 1.757712 4.734142)
      (xy 1.770838 4.79068)
      (xy 1.79434 4.831576)
      (xy 1.82242 4.862424)
      (xy 1.916722 4.921967)
      (xy 2.017974 4.927054)
      (xy 2.11367 4.877341)
      (xy 2.121118 4.870605)
      (xy 2.152908 4.835564)
      (xy 2.172842 4.793873)
      (xy 2.183634 4.731824)
      (xy 2.187999 4.635706)
      (xy 2.188689 4.529441)
      (xy 2.187193 4.395942)
      (xy 2.180998 4.306884)
      (xy 2.167548 4.248355)
      (xy 2.144285 4.206444)
      (xy 2.125209 4.184185)
      (xy 2.036597 4.128047)
      (xy 1.934542 4.121297)
      (xy 1.837129 4.164176)
      (xy 1.81833 4.180094)
      (xy 1.786327 4.215444)
      (xy 1.766352 4.257564)
      (xy 1.755627 4.320313)
      (xy 1.751373 4.417549)
      (xy 1.750758 4.517168)
      (xy 1.546795 4.517168)
      (xy 1.553538 4.342009)
      (xy 1.577506 4.204257)
      (xy 1.622582 4.100694)
      (xy 1.692962 4.019918)
      (xy 1.747777 3.978517)
      (xy 1.84741 3.93379)
      (xy 1.962889 3.913029)
      (xy 2.070233 3.918587)
      (xy 2.130298 3.941005)
      (xy 2.153869 3.947385)
      (xy 2.169511 3.923597)
      (xy 2.180429 3.85985)
      (xy 2.188689 3.762749)
      (xy 2.197733 3.654603)
      (xy 2.210295 3.589537)
      (xy 2.233153 3.55233)
      (xy 2.273085 3.527761)
      (xy 2.298172 3.516881)
      (xy 2.393057 3.477134)
      (xy 2.392948 4.154517)
    ) (layer "F.Mask") (width 0.01) (fill solid) (tstamp acefcb12-0424-46e2-8de2-66f7c48ce3ab))
  (fp_poly (pts
      (xy 5.334724 3.94008)
      (xy 5.369619 3.955331)
      (xy 5.452911 4.021297)
      (xy 5.524137 4.11668)
      (xy 5.568187 4.218468)
      (xy 5.575356 4.268649)
      (xy 5.551319 4.338709)
      (xy 5.498595 4.375779)
      (xy 5.442065 4.398226)
      (xy 5.41618 4.402362)
      (xy 5.403576 4.372345)
      (xy 5.378688 4.307023)
      (xy 5.367769 4.277507)
      (xy 5.306542 4.17541)
      (xy 5.217895 4.124485)
      (xy 5.104227 4.126051)
      (xy 5.095808 4.128056)
      (xy 5.035122 4.156829)
      (xy 4.990508 4.212921)
      (xy 4.960036 4.303225)
      (xy 4.941778 4.434633)
      (xy 4.933805 4.614036)
      (xy 4.933057 4.709495)
      (xy 4.932686 4.859975)
      (xy 4.930257 4.962557)
      (xy 4.923794 5.027734)
      (xy 4.911322 5.066)
      (xy 4.890867 5.087847)
      (xy 4.860453 5.103769)
      (xy 4.858695 5.104571)
      (xy 4.800125 5.129334)
      (xy 4.771109 5.138453)
      (xy 4.76665 5.110884)
      (xy 4.762833 5.034682)
      (xy 4.759933 4.919603)
      (xy 4.758225 4.775403)
      (xy 4.757885 4.669876)
      (xy 4.759622 4.465675)
      (xy 4.766416 4.310759)
      (xy 4.780641 4.196086)
      (xy 4.804672 4.112613)
      (xy 4.840882 4.051298)
      (xy 4.891646 4.003096)
      (xy 4.941773 3.969455)
      (xy 5.062309 3.924681)
      (xy 5.202591 3.914583)
      (xy 5.334724 3.94008)
    ) (layer "F.Mask") (width 0.01) (fill solid) (tstamp b0343ec5-9193-4daa-b990-3bb3ece29851))
  (fp_poly (pts
      (xy 3.579158 3.939902)
      (xy 3.583613 4.016715)
      (xy 3.587105 4.133453)
      (xy 3.589349 4.280883)
      (xy 3.590069 4.435517)
      (xy 3.590069 4.958789)
      (xy 3.497679 5.051179)
      (xy 3.434012 5.108109)
      (xy 3.378123 5.131169)
      (xy 3.301736 5.129709)
      (xy 3.271414 5.125996)
      (xy 3.176644 5.115188)
      (xy 3.098256 5.108995)
      (xy 3.079149 5.108423)
      (xy 3.014733 5.112164)
      (xy 2.922605 5.121556)
      (xy 2.886884 5.125996)
      (xy 2.799148 5.132863)
      (xy 2.740187 5.117947)
      (xy 2.681724 5.071897)
      (xy 2.660619 5.051179)
      (xy 2.568229 4.958789)
      (xy 2.568229 3.980009)
      (xy 2.642592 3.946128)
      (xy 2.706624 3.921032)
      (xy 2.744086 3.912246)
      (xy 2.753691 3.940012)
      (xy 2.762669 4.017592)
      (xy 2.77042 4.13641)
      (xy 2.776348 4.28789)
      (xy 2.779207 4.415867)
      (xy 2.787195 4.919487)
      (xy 2.856882 4.92934)
      (xy 2.920263 4.922451)
      (xy 2.95132 4.900145)
      (xy 2.960001 4.858441)
      (xy 2.967412 4.769606)
      (xy 2.972965 4.644896)
      (xy 2.97607 4.495569)
      (xy 2.976518 4.418723)
      (xy 2.976965 3.976349)
      (xy 3.068908 3.944297)
      (xy 3.133983 3.922505)
      (xy 3.169381 3.912343)
      (xy 3.170402 3.912246)
      (xy 3.173954 3.939871)
      (xy 3.177857 4.016473)
      (xy 3.181785 4.132641)
      (xy 3.18541 4.278966)
      (xy 3.187942 4.415867)
      (xy 3.195931 4.919487)
      (xy 3.371103 4.919487)
      (xy 3.379141 4.460027)
      (xy 3.38718 4.000567)
      (xy 3.472577 3.956406)
      (xy 3.535627 3.926081)
      (xy 3.572944 3.91232)
      (xy 3.574021 3.912246)
      (xy 3.579158 3.939902)
    ) (layer "F.Mask") (width 0.01) (fill solid) (tstamp de3d9368-4cf1-4a8f-aa22-e675871299cc))
  (fp_poly (pts
      (xy -5.952745 3.866077)
      (xy -5.815905 3.93803)
      (xy -5.714915 4.053828)
      (xy -5.679041 4.128275)
      (xy -5.651127 4.240054)
      (xy -5.636837 4.381289)
      (xy -5.635482 4.535433)
      (xy -5.646371 4.685941)
      (xy -5.668813 4.816267)
      (xy -5.702116 4.909865)
      (xy -5.712351 4.925984)
      (xy -5.833584 5.046311)
      (xy -5.977579 5.118379)
      (xy -6.133827 5.13947)
      (xy -6.291818 5.106864)
      (xy -6.335786 5.087315)
      (xy -6.42141 5.027074)
      (xy -6.496558 4.947197)
      (xy -6.50366 4.937066)
      (xy -6.532527 4.888243)
      (xy -6.551609 4.836052)
      (xy -6.562882 4.767347)
      (xy -6.568321 4.66898)
      (xy -6.569904 4.527806)
      (xy -6.569931 4.496154)
      (xy -6.569859 4.486081)
      (xy -6.277977 4.486081)
      (xy -6.276279 4.619318)
      (xy -6.269594 4.707736)
      (xy -6.255541 4.764847)
      (xy -6.231737 4.804164)
      (xy -6.219587 4.817303)
      (xy -6.14973 4.867234)
      (xy -6.081907 4.864957)
      (xy -6.013331 4.821646)
      (xy -5.972431 4.775408)
      (xy -5.948208 4.707919)
      (xy -5.934605 4.601495)
      (xy -5.933672 4.589082)
      (xy -5.93135 4.396209)
      (xy -5.955616 4.252962)
      (xy -6.006142 4.160222)
      (xy -6.082598 4.118869)
      (xy -6.10989 4.116614)
      (xy -6.181555 4.127955)
      (xy -6.230576 4.167246)
      (xy -6.260548 4.242388)
      (xy -6.275067 4.361284)
      (xy -6.277977 4.486081)
      (xy -6.569859 4.486081)
      (xy -6.568844 4.345721)
      (xy -6.564278 4.240611)
      (xy -6.554278 4.167776)
      (xy -6.536887 4.11417)
      (xy -6.51015 4.066743)
      (xy -6.504242 4.057926)
      (xy -6.404934 3.939069)
      (xy -6.296724 3.87007)
      (xy -6.164985 3.842681)
      (xy -6.120249 3.841343)
      (xy -5.952745 3.866077)
    ) (layer "F.Mask") (width 0.01) (fill solid) (tstamp f5818125-bb36-4714-a821-662cc2584d5a))
)
