(footprint "weact-rgb-one" (version 20211014) (generator pcbnew)
  (layer "F.Cu")
  (tedit 5A19A429)
  (descr "Through hole straight socket strip, 1x03, 2.54mm pitch, single row (from Kicad 4.0.7), script generated")
  (tags "Through hole socket strip THT 1x03 2.54mm single row")
  (attr through_hole)
  (fp_text reference "REF**" (at 0.09 -3.24) (layer "F.SilkS")
    (effects (font (size 1 1) (thickness 0.15)))
    (tstamp 506788bb-aa50-4e92-b7f5-90b4b72052ca)
  )
  (fp_text value "weact-rgb-one" (at -5.73 6.97 180) (layer "F.Fab")
    (effects (font (size 1 1) (thickness 0.15)))
    (tstamp ca3e7ef7-c66b-4bbf-8027-f27b1890cc0a)
  )
  (fp_text user "do" (at -2.39 5.01 unlocked) (layer "B.SilkS")
    (effects (font (size 1 1) (thickness 0.15)) (justify mirror))
    (tstamp 01f8317f-0e51-4807-aa4d-75ebbe491082)
  )
  (fp_text user "5V" (at -8.32 2.7 unlocked) (layer "B.SilkS")
    (effects (font (size 1 1) (thickness 0.15)) (justify mirror))
    (tstamp 194330f7-cc92-4ea0-8fc4-be527b3d4ce3)
  )
  (fp_text user "gnd" (at -2.752 -0.25 unlocked) (layer "B.SilkS")
    (effects (font (size 1 1) (thickness 0.15)) (justify mirror))
    (tstamp 2964a5a0-9bb7-4087-8bc8-c529c0e11555)
  )
  (fp_text user "${VALUE}" (at -14.27 2.52 90) (layer "B.SilkS")
    (effects (font (size 1 1) (thickness 0.15)) (justify mirror))
    (tstamp 4d490848-588c-4582-a1c6-c2bbf48d7a51)
  )
  (fp_text user "5V" (at -2.59 2.51 unlocked) (layer "B.SilkS")
    (effects (font (size 1 1) (thickness 0.15)) (justify mirror))
    (tstamp 5e974196-6ea4-4e12-bf0f-88fecf56aa2b)
  )
  (fp_text user "di" (at -8.48 5.29 unlocked) (layer "B.SilkS")
    (effects (font (size 1 1) (thickness 0.15)) (justify mirror))
    (tstamp 8845c69d-5e22-4ebe-b54c-de9c92eb8264)
  )
  (fp_text user "gnd" (at -8.06 -0.33 unlocked) (layer "B.SilkS")
    (effects (font (size 1 1) (thickness 0.15)) (justify mirror))
    (tstamp 99740a72-5e03-4763-b41e-f6fb9fbaf713)
  )
  (fp_text user "do" (at -2.33 5.06 unlocked) (layer "F.SilkS")
    (effects (font (size 1 1) (thickness 0.15)))
    (tstamp 07ec98f2-6f79-4f04-997a-29a35a0c2727)
  )
  (fp_text user "gnd" (at -2.83 -0.12 unlocked) (layer "F.SilkS")
    (effects (font (size 1 1) (thickness 0.15)))
    (tstamp 49396472-735a-4f4b-a32e-72e0f0a8419c)
  )
  (fp_text user "5V" (at -8.33 2.67 unlocked) (layer "F.SilkS")
    (effects (font (size 1 1) (thickness 0.15)))
    (tstamp 4d982cb5-a14b-4942-9344-759e334d31ec)
  )
  (fp_text user "${VALUE}" (at -8.45 -3.24) (layer "F.SilkS")
    (effects (font (size 1 1) (thickness 0.15)))
    (tstamp c424cdb8-1cc3-4ec2-b82d-2ea80eed857c)
  )
  (fp_text user "di" (at -8.48 5.23 unlocked) (layer "F.SilkS")
    (effects (font (size 1 1) (thickness 0.15)))
    (tstamp e330a984-ff9c-48ce-b5b6-b5c8afbea6b8)
  )
  (fp_text user "gnd" (at -7.84 -0.35 unlocked) (layer "F.SilkS")
    (effects (font (size 1 1) (thickness 0.15)))
    (tstamp fd2c8fa9-3b83-4bfe-b02c-4c03f128bd8a)
  )
  (fp_text user "5V" (at -2.601 2.58 unlocked) (layer "F.SilkS")
    (effects (font (size 1 1) (thickness 0.15)))
    (tstamp ff48f351-c016-46d4-ac01-6e1891860690)
  )
  (fp_rect (start -15.3 -2.48) (end 4.56 7.4) (layer "B.SilkS") (width 0.12) (fill none) (tstamp 6632955b-cb95-46c6-96c6-c8e63c2c930f))
  (fp_poly (pts
      (xy -5.604891 0.623283)
      (xy -5.669749 0.68144)
      (xy -5.778252 0.809398)
      (xy -5.841006 0.955251)
      (xy -5.870079 1.168175)
      (xy -5.877542 1.497346)
      (xy -5.877567 1.528106)
      (xy -5.88152 1.853954)
      (xy -5.899564 2.045531)
      (xy -5.940974 2.137832)
      (xy -6.015025 2.16585)
      (xy -6.0469 2.166955)
      (xy -6.188404 2.226823)
      (xy -6.216234 2.336288)
      (xy -6.176318 2.460235)
      (xy -6.027801 2.503875)
      (xy -5.962234 2.505622)
      (xy -5.811872 2.51487)
      (xy -5.736892 2.571737)
      (xy -5.711086 2.719902)
      (xy -5.708234 2.928955)
      (xy -5.699318 3.182872)
      (xy -5.661477 3.30951)
      (xy -5.578067 3.350477)
      (xy -5.5389 3.352288)
      (xy -5.437333 3.33)
      (xy -5.386678 3.235397)
      (xy -5.370291 3.026871)
      (xy -5.369567 2.928955)
      (xy -5.360652 2.675038)
      (xy -5.32281 2.5484)
      (xy -5.2394 2.507433)
      (xy -5.200234 2.505622)
      (xy -5.098667 2.52791)
      (xy -5.048011 2.622512)
      (xy -5.031625 2.831038)
      (xy -5.0309 2.928955)
      (xy -5.021985 3.182872)
      (xy -4.984144 3.30951)
      (xy -4.900733 3.350477)
      (xy -4.861567 3.352288)
      (xy -4.76 3.33)
      (xy -4.709345 3.235397)
      (xy -4.692958 3.026871)
      (xy -4.692234 2.928955)
      (xy -4.686684 2.678352)
      (xy -4.652564 2.553385)
      (xy -4.563665 2.510375)
      (xy -4.438234 2.505622)
      (xy -4.252313 2.479011)
      (xy -4.186854 2.38)
      (xy -4.184234 2.336288)
      (xy -4.244102 2.194784)
      (xy -4.353567 2.166955)
      (xy -4.439936 2.15204)
      (xy -4.490716 2.083966)
      (xy -4.504237 1.997622)
      (xy -4.853487 1.997622)
      (xy -5.54698 1.997622)
      (xy -5.521774 1.477258)
      (xy -5.471943 1.09595)
      (xy -5.367921 0.870862)
      (xy -5.211242 0.804001)
      (xy -5.052067 0.863858)
      (xy -4.958431 0.976702)
      (xy -4.902951 1.193043)
      (xy -4.878693 1.477258)
      (xy -4.853487 1.997622)
      (xy -4.504237 1.997622)
      (xy -4.515181 1.927739)
      (xy -4.522607 1.648364)
      (xy -4.5229 1.528106)
      (xy -4.529229 1.188229)
      (xy -4.556261 0.968289)
      (xy -4.616068 0.819109)
      (xy -4.72072 0.691515)
      (xy -4.730718 0.68144)
      (xy -5.010484 0.505675)
      (xy -5.315208 0.486289)
    ) (layer "B.SilkS") (width 0) (fill solid) (tstamp 8d507747-c9ca-48ab-a9c1-792551afc592))
  (fp_line (start -9.389 6.41) (end -12.049 6.41) (layer "F.SilkS") (width 0.12) (tstamp 1ca41ce4-7d15-493c-b054-65ea5780b541))
  (fp_line (start -12.059 5.08) (end -12.059 -1.32) (layer "F.SilkS") (width 0.12) (tstamp 2d93da5e-f390-47df-ac6a-b2412590cd27))
  (fp_line (start 3.99 6.41) (end 3.99 -1.33) (layer "F.SilkS") (width 0.12) (tstamp 2dd26645-2f56-4505-9ad3-52a7b3ac366c))
  (fp_line (start -9.389 6.41) (end -9.389 -1.33) (layer "F.SilkS") (width 0.12) (tstamp 3591bc13-861b-4665-9345-e8072a0c7a08))
  (fp_line (start 1.351 6.41) (end -1.33 6.41) (layer "F.SilkS") (width 0.12) (tstamp 553d3e74-985d-4852-a63f-664815fa8126))
  (fp_line (start 1.33 5.08) (end 1.33 -1.33) (layer "F.SilkS") (width 0.12) (tstamp 6c99dc11-7519-4dbe-afc1-526c1b64c61a))
  (fp_line (start 3.99 6.41) (end 1.33 6.41) (layer "F.SilkS") (width 0.12) (tstamp 6ce239d3-485d-4a21-a955-21495c629fd0))
  (fp_line (start 1.33 6.41) (end 1.33 5.08) (layer "F.SilkS") (width 0.12) (tstamp 81c01c70-e79b-4c69-a12e-e78948ac17d1))
  (fp_line (start -12.049 6.41) (end -12.049 5.08) (layer "F.SilkS") (width 0.12) (tstamp ab33615a-1037-48f4-b33f-128b4036c258))
  (fp_line (start 1.33 -1.33) (end -1.33 -1.33) (layer "F.SilkS") (width 0.12) (tstamp b3ba9040-f3dc-47b4-a6a9-fbd4da133a7d))
  (fp_line (start -9.389 -1.33) (end -12.049 -1.33) (layer "F.SilkS") (width 0.12) (tstamp b57ea17d-dfc2-4642-9149-41d93cde02df))
  (fp_line (start 3.99 -1.33) (end 1.33 -1.33) (layer "F.SilkS") (width 0.12) (tstamp c0f0b681-c446-4019-b08e-e97b72a214bc))
  (fp_line (start -1.33 6.41) (end -1.33 5.08) (layer "F.SilkS") (width 0.12) (tstamp c9d38f94-14cf-4f60-af92-f38999e07301))
  (fp_line (start -1.33 5.08) (end -1.33 -1.33) (layer "F.SilkS") (width 0.12) (tstamp edde05af-c81c-47a4-a840-988f91b77d58))
  (fp_line (start 1.33 3.81) (end 1.33 -1.33) (layer "F.SilkS") (width 0.12) (tstamp f98492e3-f65d-4b51-98bf-d825f7cab47d))
  (fp_rect (start -15.29 -2.48) (end 4.56 7.4) (layer "F.SilkS") (width 0.12) (fill none) (tstamp e218c94c-a9b0-4b1a-a371-4adf15705e0d))
  (fp_poly (pts
      (xy -4.786586 0.643773)
      (xy -4.721728 0.70193)
      (xy -4.613225 0.829888)
      (xy -4.550471 0.975741)
      (xy -4.521398 1.188665)
      (xy -4.513935 1.517836)
      (xy -4.51391 1.548596)
      (xy -4.509957 1.874444)
      (xy -4.491913 2.066021)
      (xy -4.450503 2.158322)
      (xy -4.376452 2.18634)
      (xy -4.344577 2.187445)
      (xy -4.203073 2.247313)
      (xy -4.175243 2.356778)
      (xy -4.215159 2.480725)
      (xy -4.363676 2.524365)
      (xy -4.429243 2.526112)
      (xy -4.579605 2.53536)
      (xy -4.654585 2.592227)
      (xy -4.680391 2.740392)
      (xy -4.683243 2.949445)
      (xy -4.692159 3.203362)
      (xy -4.73 3.33)
      (xy -4.81341 3.370967)
      (xy -4.852577 3.372778)
      (xy -4.954144 3.35049)
      (xy -5.004799 3.255887)
      (xy -5.021186 3.047361)
      (xy -5.02191 2.949445)
      (xy -5.030825 2.695528)
      (xy -5.068667 2.56889)
      (xy -5.152077 2.527923)
      (xy -5.191243 2.526112)
      (xy -5.29281 2.5484)
      (xy -5.343466 2.643002)
      (xy -5.359852 2.851528)
      (xy -5.360577 2.949445)
      (xy -5.369492 3.203362)
      (xy -5.407333 3.33)
      (xy -5.490744 3.370967)
      (xy -5.52991 3.372778)
      (xy -5.631477 3.35049)
      (xy -5.682132 3.255887)
      (xy -5.698519 3.047361)
      (xy -5.699243 2.949445)
      (xy -5.704793 2.698842)
      (xy -5.738913 2.573875)
      (xy -5.827812 2.530865)
      (xy -5.953243 2.526112)
      (xy -6.139164 2.499501)
      (xy -6.204623 2.40049)
      (xy -6.207243 2.356778)
      (xy -6.147375 2.215274)
      (xy -6.03791 2.187445)
      (xy -5.951541 2.17253)
      (xy -5.900761 2.104456)
      (xy -5.88724 2.018112)
      (xy -5.53799 2.018112)
      (xy -4.844497 2.018112)
      (xy -4.869703 1.497748)
      (xy -4.919534 1.11644)
      (xy -5.023556 0.891352)
      (xy -5.180235 0.824491)
      (xy -5.33941 0.884348)
      (xy -5.433046 0.997192)
      (xy -5.488526 1.213533)
      (xy -5.512784 1.497748)
      (xy -5.53799 2.018112)
      (xy -5.88724 2.018112)
      (xy -5.876296 1.948229)
      (xy -5.86887 1.668854)
      (xy -5.868577 1.548596)
      (xy -5.862248 1.208719)
      (xy -5.835216 0.988779)
      (xy -5.775409 0.839599)
      (xy -5.670757 0.712005)
      (xy -5.660759 0.70193)
      (xy -5.380993 0.526165)
      (xy -5.076269 0.506779)
    ) (layer "F.SilkS") (width 0) (fill solid) (tstamp 4909ea33-15de-4d1d-b436-ca253b7ada30))
  (fp_line (start -15.3595 -2.54) (end -15.3595 7.46) (layer "F.CrtYd") (width 0.05) (tstamp 46c5e6b4-b1f6-4cd5-b708-0827f7a78d4d))
  (fp_line (start -15.3595 -2.54) (end 4.6405 -2.54) (layer "F.CrtYd") (width 0.05) (tstamp 7319f896-9458-4a0c-af32-9260586ff3cc))
  (fp_line (start 4.6405 -2.54) (end 4.6405 7.46) (layer "F.CrtYd") (width 0.05) (tstamp 855c6763-676a-43f4-96d0-dc4eb5094a15))
  (fp_line (start 4.6405 7.46) (end -15.3595 7.46) (layer "F.CrtYd") (width 0.05) (tstamp daafbea4-73b1-49a0-923d-61f5dc85f07e))
  (fp_line (start 1.39 -1.27) (end 3.93 -1.27) (layer "F.Fab") (width 0.1) (tstamp 2faab7d7-2580-4ef1-930a-69d4a157a089))
  (fp_line (start -1.27 5.715) (end -1.27 -1.27) (layer "F.Fab") (width 0.1) (tstamp 4f395dc6-b80c-465b-aac2-6cf753c859e0))
  (fp_line (start -11.989 5.715) (end -11.989 -1.27) (layer "F.Fab") (width 0.1) (tstamp 628ceaba-b412-45fd-8de4-fbe346aa8e3e))
  (fp_line (start -1.27 -1.27) (end 1.27 -1.27) (layer "F.Fab") (width 0.1) (tstamp 66a7aaae-1c22-4a5b-8fe9-65fb532b919a))
  (fp_line (start 1.27 -1.27) (end 1.27 6.35) (layer "F.Fab") (width 0.1) (tstamp 6d0d0704-e4ab-4e0a-b067-9269ae9de251))
  (fp_line (start -9.449 6.35) (end -11.354 6.35) (layer "F.Fab") (width 0.1) (tstamp 8c1560ec-36ff-49e2-8a0a-177bf9e0d9ab))
  (fp_line (start -11.989 -1.27) (end -9.449 -1.27) (layer "F.Fab") (width 0.1) (tstamp 8f9a9259-bbdf-491b-ac72-06a1fb65b5bd))
  (fp_line (start 1.39 5.715) (end 1.39 -1.27) (layer "F.Fab") (width 0.1) (tstamp baa0abd8-2317-4a6d-b087-c9220f4d36e8))
  (fp_line (start 3.93 -1.27) (end 3.93 6.35) (layer "F.Fab") (width 0.1) (tstamp bd5156b2-5da8-4eff-8dc7-c0815496ee82))
  (fp_line (start 3.93 6.35) (end 2.025 6.35) (layer "F.Fab") (width 0.1) (tstamp e622e6a8-dc18-4f44-80e5-2c7661f38ecc))
  (fp_line (start -9.449 -1.27) (end -9.449 6.35) (layer "F.Fab") (width 0.1) (tstamp e9c65855-0116-4e7d-8840-137bf3c18745))
  (fp_line (start 1.27 6.35) (end -0.635 6.35) (layer "F.Fab") (width 0.1) (tstamp fb1ba7b4-832e-4035-b2c9-7c5d9684f908))
  (pad "1" thru_hole roundrect (at -10.719 0 180) (size 1.7 1.7) (drill 1) (layers *.Cu *.Mask) (roundrect_rratio 0.25) (tstamp 87b6e987-5f4c-41ef-898e-26c9db7a1e81))
  (pad "2" thru_hole oval (at 2.66 5.08 180) (size 1.7 1.7) (drill 1) (layers *.Cu *.Mask) (tstamp 35021afd-5880-42ef-a9d4-80c783b92b26))
  (pad "2" thru_hole oval (at 0 5.08 180) (size 1.7 1.7) (drill 1) (layers *.Cu *.Mask) (tstamp 3c939617-0029-4d87-b123-f0a9e0df2257))
  (pad "3" thru_hole oval (at -10.719 2.54 180) (size 1.7 1.7) (drill 1) (layers *.Cu *.Mask) (tstamp 2a216c2b-ef76-4454-9a27-5087f1a3e789))
  (pad "4" thru_hole oval (at -10.719 5.08 180) (size 1.7 1.7) (drill 1) (layers *.Cu *.Mask) (tstamp e097a2b7-f6e6-4d57-acd3-7bcd07f28305))
  (pad "5" thru_hole roundrect (at 2.66 0 180) (size 1.7 1.7) (drill 1) (layers *.Cu *.Mask) (roundrect_rratio 0.25) (tstamp 9459458b-43ff-477d-8d84-7fa3c35f2258))
  (pad "5" thru_hole roundrect (at 0 0 180) (size 1.7 1.7) (drill 1) (layers *.Cu *.Mask) (roundrect_rratio 0.25) (tstamp 9fa2530d-b683-460d-9d56-cecf142a0664))
  (pad "6" thru_hole oval (at 0 2.54 180) (size 1.7 1.7) (drill 1) (layers *.Cu *.Mask) (tstamp 2f474eed-32e9-4073-a406-31d6709bb72c))
  (pad "6" thru_hole oval (at 2.66 2.54 180) (size 1.7 1.7) (drill 1) (layers *.Cu *.Mask) (tstamp 34584044-19d8-46a0-81c0-46beb8777067))
  (model "${KICAD6_3DMODEL_DIR}/Connector_PinSocket_2.54mm.3dshapes/PinSocket_1x03_P2.54mm_Vertical.wrl"
    (offset (xyz 0 0 0))
    (scale (xyz 1 1 1))
    (rotate (xyz 0 0 0))
  )
  (model "${KICAD6_3DMODEL_DIR}/Connector_PinSocket_2.54mm.3dshapes/PinSocket_1x03_P2.54mm_Vertical.wrl"
    (offset (xyz -10.719 0 0))
    (scale (xyz 1 1 1))
    (rotate (xyz 0 0 0))
  )
  (model "${KICAD6_3DMODEL_DIR}/Connector_JST.3dshapes/JST_EH_S3B-EH_1x03_P2.50mm_Horizontal.step"
    (offset (xyz 2.5 -5 -2))
    (scale (xyz 1 1 1))
    (rotate (xyz 0 -180 90))
  )
)
